﻿PokerStars Hand #188552945027: Tournament #2353064675, 8500+1500 Hold'em No Limit - Level I (10/20) - 2018/07/09 21:15:43 ET
Table '2353064675 1' 9-max Seat #1 is the button
Seat 1: abandit54 (1000 in chips) 
Seat 2: Bebe_Bacana (1000 in chips) is sitting out
Seat 3: Arthur944 (1000 in chips) 
Seat 4: juankrete71 (1000 in chips) 
Seat 5: Lostboy57 (1000 in chips) 
Seat 6: ij12 (1000 in chips) 
Seat 7: Gus H.B (1000 in chips) 
Seat 8: luky984 (1000 in chips) 
Seat 9: kellyjandrews (1000 in chips) 
Bebe_Bacana: posts small blind 10
Arthur944: posts big blind 20
*** HOLE CARDS ***
Dealt to kellyjandrews [9c Tc]
juankrete71: calls 20
Lostboy57: folds 
ij12: folds 
Gus H.B: calls 20
luky984: folds 
kellyjandrews: calls 20
abandit54: calls 20
Bebe_Bacana: folds 
Arthur944: checks 
*** FLOP *** [8c Td Js]
Arthur944: checks 
juankrete71: checks 
Gus H.B: checks 
kellyjandrews: bets 20
abandit54: calls 20
Arthur944: calls 20
juankrete71: calls 20
Gus H.B: calls 20
*** TURN *** [8c Td Js] [8d]
Arthur944: checks 
juankrete71: bets 20
Gus H.B: calls 20
kellyjandrews: calls 20
abandit54: raises 100 to 120
Arthur944: folds 
juankrete71: calls 100
Gus H.B: calls 100
kellyjandrews: calls 100
*** RIVER *** [8c Td Js 8d] [9s]
juankrete71: checks 
Gus H.B: bets 840 and is all-in
kellyjandrews: folds 
abandit54: calls 840 and is all-in
juankrete71: folds 
*** SHOW DOWN ***
Gus H.B: shows [6c Qs] (a straight, Eight to Queen)
abandit54: shows [2d 8s] (three of a kind, Eights)
Gus H.B collected 2370 from pot
abandit54 finished the tournament in 9th place
*** SUMMARY ***
Total pot 2370 | Rake 0 
Board [8c Td Js 8d 9s]
Seat 1: abandit54 (button) showed [2d 8s] and lost with three of a kind, Eights
Seat 2: Bebe_Bacana (small blind) folded before Flop
Seat 3: Arthur944 (big blind) folded on the Turn
Seat 4: juankrete71 folded on the River
Seat 5: Lostboy57 folded before Flop (didn't bet)
Seat 6: ij12 folded before Flop (didn't bet)
Seat 7: Gus H.B showed [6c Qs] and won (2370) with a straight, Eight to Queen
Seat 8: luky984 folded before Flop (didn't bet)
Seat 9: kellyjandrews folded on the River



PokerStars Hand #188552988542: Tournament #2353064675, 8500+1500 Hold'em No Limit - Level I (10/20) - 2018/07/09 21:17:44 ET
Table '2353064675 1' 9-max Seat #2 is the button
Seat 2: Bebe_Bacana (990 in chips) 
Seat 3: Arthur944 (960 in chips) 
Seat 4: juankrete71 (840 in chips) 
Seat 5: Lostboy57 (1000 in chips) 
Seat 6: ij12 (1000 in chips) 
Seat 7: Gus H.B (2370 in chips) 
Seat 8: luky984 (1000 in chips) 
Seat 9: kellyjandrews (840 in chips) 
Arthur944: posts small blind 10
juankrete71: posts big blind 20
*** HOLE CARDS ***
Dealt to kellyjandrews [5c 8h]
Lostboy57: folds 
ij12: calls 20
Gus H.B: calls 20
luky984: folds 
kellyjandrews: folds 
Bebe_Bacana: folds 
Arthur944: calls 10
juankrete71: checks 
*** FLOP *** [Jd 7s 2c]
Arthur944: checks 
juankrete71: checks 
ij12: checks 
Gus H.B: checks 
*** TURN *** [Jd 7s 2c] [6d]
Arthur944: checks 
juankrete71: checks 
ij12: checks 
Gus H.B: checks 
*** RIVER *** [Jd 7s 2c 6d] [As]
Arthur944: checks 
juankrete71: checks 
ij12: bets 80
Gus H.B: folds 
Arthur944: folds 
juankrete71: calls 80
*** SHOW DOWN ***
ij12: shows [Ac 2h] (two pair, Aces and Deuces)
juankrete71: mucks hand 
ij12 collected 240 from pot
*** SUMMARY ***
Total pot 240 | Rake 0 
Board [Jd 7s 2c 6d As]
Seat 2: Bebe_Bacana (button) folded before Flop (didn't bet)
Seat 3: Arthur944 (small blind) folded on the River
Seat 4: juankrete71 (big blind) mucked [7c Qd]
Seat 5: Lostboy57 folded before Flop (didn't bet)
Seat 6: ij12 showed [Ac 2h] and won (240) with two pair, Aces and Deuces
Seat 7: Gus H.B folded on the River
Seat 8: luky984 folded before Flop (didn't bet)
Seat 9: kellyjandrews folded before Flop (didn't bet)



PokerStars Hand #188553008652: Tournament #2353064675, 8500+1500 Hold'em No Limit - Level I (10/20) - 2018/07/09 21:18:41 ET
Table '2353064675 1' 9-max Seat #3 is the button
Seat 2: Bebe_Bacana (990 in chips) 
Seat 3: Arthur944 (940 in chips) 
Seat 4: juankrete71 (740 in chips) 
Seat 5: Lostboy57 (1000 in chips) 
Seat 6: ij12 (1140 in chips) 
Seat 7: Gus H.B (2350 in chips) 
Seat 8: luky984 (1000 in chips) 
Seat 9: kellyjandrews (840 in chips) 
juankrete71: posts small blind 10
Lostboy57: posts big blind 20
*** HOLE CARDS ***
Dealt to kellyjandrews [Kh 6c]
ij12: calls 20
Gus H.B: calls 20
luky984: calls 20
kellyjandrews: folds 
Bebe_Bacana: folds 
Arthur944: calls 20
juankrete71: calls 10
Lostboy57: checks 
*** FLOP *** [5h Kc Ad]
juankrete71: checks 
Lostboy57: bets 60
ij12: calls 60
Gus H.B: folds 
luky984: folds 
Arthur944: folds 
juankrete71: folds 
*** TURN *** [5h Kc Ad] [Jd]
Lostboy57: bets 60
ij12: raises 60 to 120
Lostboy57: calls 60
*** RIVER *** [5h Kc Ad Jd] [Ac]
Lostboy57: checks 
ij12: bets 940 and is all-in
Lostboy57: folds 
Uncalled bet (940) returned to ij12
ij12 collected 480 from pot
ij12: doesn't show hand 
*** SUMMARY ***
Total pot 480 | Rake 0 
Board [5h Kc Ad Jd Ac]
Seat 2: Bebe_Bacana folded before Flop (didn't bet)
Seat 3: Arthur944 (button) folded on the Flop
Seat 4: juankrete71 (small blind) folded on the Flop
Seat 5: Lostboy57 (big blind) folded on the River
Seat 6: ij12 collected (480)
Seat 7: Gus H.B folded on the Flop
Seat 8: luky984 folded on the Flop
Seat 9: kellyjandrews folded before Flop (didn't bet)



PokerStars Hand #188553039722: Tournament #2353064675, 8500+1500 Hold'em No Limit - Level I (10/20) - 2018/07/09 21:20:08 ET
Table '2353064675 1' 9-max Seat #4 is the button
Seat 2: Bebe_Bacana (990 in chips) 
Seat 3: Arthur944 (920 in chips) 
Seat 4: juankrete71 (720 in chips) 
Seat 5: Lostboy57 (800 in chips) 
Seat 6: ij12 (1420 in chips) 
Seat 7: Gus H.B (2330 in chips) 
Seat 8: luky984 (980 in chips) 
Seat 9: kellyjandrews (840 in chips) 
Lostboy57: posts small blind 10
ij12: posts big blind 20
*** HOLE CARDS ***
Dealt to kellyjandrews [Qs Ah]
Gus H.B: calls 20
luky984: folds 
kellyjandrews: raises 20 to 40
Bebe_Bacana: folds 
Arthur944: calls 40
juankrete71: folds 
Lostboy57: folds 
ij12: folds 
Gus H.B: calls 20
*** FLOP *** [Qc 7h 8c]
Gus H.B: checks 
kellyjandrews: bets 75
Arthur944: folds 
Gus H.B: calls 75
*** TURN *** [Qc 7h 8c] [Jc]
Gus H.B: checks 
kellyjandrews: checks 
*** RIVER *** [Qc 7h 8c Jc] [7s]
Gus H.B: checks 
kellyjandrews: checks 
*** SHOW DOWN ***
Gus H.B: shows [Td 6s] (a pair of Sevens)
kellyjandrews: shows [Qs Ah] (two pair, Queens and Sevens)
kellyjandrews collected 300 from pot
*** SUMMARY ***
Total pot 300 | Rake 0 
Board [Qc 7h 8c Jc 7s]
Seat 2: Bebe_Bacana folded before Flop (didn't bet)
Seat 3: Arthur944 folded on the Flop
Seat 4: juankrete71 (button) folded before Flop (didn't bet)
Seat 5: Lostboy57 (small blind) folded before Flop
Seat 6: ij12 (big blind) folded before Flop
Seat 7: Gus H.B showed [Td 6s] and lost with a pair of Sevens
Seat 8: luky984 folded before Flop (didn't bet)
Seat 9: kellyjandrews showed [Qs Ah] and won (300) with two pair, Queens and Sevens



PokerStars Hand #188553061291: Tournament #2353064675, 8500+1500 Hold'em No Limit - Level II (15/30) - 2018/07/09 21:21:09 ET
Table '2353064675 1' 9-max Seat #5 is the button
Seat 2: Bebe_Bacana (990 in chips) 
Seat 3: Arthur944 (880 in chips) 
Seat 4: juankrete71 (720 in chips) 
Seat 5: Lostboy57 (790 in chips) 
Seat 6: ij12 (1400 in chips) 
Seat 7: Gus H.B (2215 in chips) 
Seat 8: luky984 (980 in chips) 
Seat 9: kellyjandrews (1025 in chips) 
ij12: posts small blind 15
Gus H.B: posts big blind 30
*** HOLE CARDS ***
Dealt to kellyjandrews [5s 2c]
luky984: calls 30
kellyjandrews: folds 
Bebe_Bacana: calls 30
Arthur944: calls 30
juankrete71: calls 30
Lostboy57: calls 30
ij12: calls 15
Gus H.B: checks 
*** FLOP *** [7c Tc 7d]
ij12: bets 30
Gus H.B: folds 
luky984: calls 30
Bebe_Bacana: calls 30
Arthur944: calls 30
juankrete71: calls 30
Lostboy57: calls 30
*** TURN *** [7c Tc 7d] [9d]
ij12: bets 195
luky984: folds 
Bebe_Bacana: folds 
Arthur944: calls 195
juankrete71: calls 195
Lostboy57: calls 195
*** RIVER *** [7c Tc 7d 9d] [6s]
ij12: checks 
Arthur944: bets 625 and is all-in
juankrete71: folds 
Lostboy57: folds 
ij12: calls 625
*** SHOW DOWN ***
Arthur944: shows [Ts 8h] (a straight, Six to Ten)
ij12: shows [7h Ad] (three of a kind, Sevens)
Arthur944 collected 2420 from pot
*** SUMMARY ***
Total pot 2420 | Rake 0 
Board [7c Tc 7d 9d 6s]
Seat 2: Bebe_Bacana folded on the Turn
Seat 3: Arthur944 showed [Ts 8h] and won (2420) with a straight, Six to Ten
Seat 4: juankrete71 folded on the River
Seat 5: Lostboy57 (button) folded on the River
Seat 6: ij12 (small blind) showed [7h Ad] and lost with three of a kind, Sevens
Seat 7: Gus H.B (big blind) folded on the Flop
Seat 8: luky984 folded on the Turn
Seat 9: kellyjandrews folded before Flop (didn't bet)



PokerStars Hand #188553094568: Tournament #2353064675, 8500+1500 Hold'em No Limit - Level II (15/30) - 2018/07/09 21:22:42 ET
Table '2353064675 1' 9-max Seat #6 is the button
Seat 2: Bebe_Bacana (930 in chips) 
Seat 3: Arthur944 (2420 in chips) 
Seat 4: juankrete71 (465 in chips) 
Seat 5: Lostboy57 (535 in chips) 
Seat 6: ij12 (520 in chips) 
Seat 7: Gus H.B (2185 in chips) 
Seat 8: luky984 (920 in chips) 
Seat 9: kellyjandrews (1025 in chips) 
Gus H.B: posts small blind 15
luky984: posts big blind 30
*** HOLE CARDS ***
Dealt to kellyjandrews [Jd 2h]
kellyjandrews: folds 
Bebe_Bacana: folds 
Arthur944: folds 
juankrete71: calls 30
Lostboy57: folds 
ij12: folds 
Gus H.B: calls 15
luky984: checks 
*** FLOP *** [9c Ac Qh]
Gus H.B: checks 
luky984: checks 
juankrete71: checks 
*** TURN *** [9c Ac Qh] [Ts]
Gus H.B: checks 
luky984: checks 
juankrete71: bets 30
Gus H.B: calls 30
luky984: calls 30
*** RIVER *** [9c Ac Qh Ts] [7d]
Gus H.B: checks 
luky984: checks 
juankrete71: checks 
*** SHOW DOWN ***
Gus H.B: shows [5d 5c] (a pair of Fives)
luky984: shows [9h Kh] (a pair of Nines)
juankrete71: shows [Qc 8s] (a pair of Queens)
juankrete71 collected 180 from pot
*** SUMMARY ***
Total pot 180 | Rake 0 
Board [9c Ac Qh Ts 7d]
Seat 2: Bebe_Bacana folded before Flop (didn't bet)
Seat 3: Arthur944 folded before Flop (didn't bet)
Seat 4: juankrete71 showed [Qc 8s] and won (180) with a pair of Queens
Seat 5: Lostboy57 folded before Flop (didn't bet)
Seat 6: ij12 (button) folded before Flop (didn't bet)
Seat 7: Gus H.B (small blind) showed [5d 5c] and lost with a pair of Fives
Seat 8: luky984 (big blind) showed [9h Kh] and lost with a pair of Nines
Seat 9: kellyjandrews folded before Flop (didn't bet)



PokerStars Hand #188553110026: Tournament #2353064675, 8500+1500 Hold'em No Limit - Level II (15/30) - 2018/07/09 21:23:26 ET
Table '2353064675 1' 9-max Seat #7 is the button
Seat 2: Bebe_Bacana (930 in chips) 
Seat 3: Arthur944 (2420 in chips) 
Seat 4: juankrete71 (585 in chips) 
Seat 5: Lostboy57 (535 in chips) 
Seat 6: ij12 (520 in chips) 
Seat 7: Gus H.B (2125 in chips) 
Seat 8: luky984 (860 in chips) 
Seat 9: kellyjandrews (1025 in chips) 
luky984: posts small blind 15
kellyjandrews: posts big blind 30
*** HOLE CARDS ***
Dealt to kellyjandrews [Qh Jd]
Bebe_Bacana: folds 
Arthur944: calls 30
juankrete71: calls 30
Lostboy57: raises 120 to 150
ij12: folds 
Gus H.B: calls 150
luky984: folds 
kellyjandrews: folds 
Arthur944: folds 
juankrete71: calls 120
*** FLOP *** [7s Kd Qc]
juankrete71: checks 
Lostboy57: bets 385 and is all-in
Gus H.B: raises 385 to 770
juankrete71: folds 
Uncalled bet (385) returned to Gus H.B
*** TURN *** [7s Kd Qc] [9h]
*** RIVER *** [7s Kd Qc 9h] [4c]
*** SHOW DOWN ***
Lostboy57: shows [Ah Ac] (a pair of Aces)
Gus H.B: shows [Ts Td] (a pair of Tens)
Lostboy57 collected 1295 from pot
*** SUMMARY ***
Total pot 1295 | Rake 0 
Board [7s Kd Qc 9h 4c]
Seat 2: Bebe_Bacana folded before Flop (didn't bet)
Seat 3: Arthur944 folded before Flop
Seat 4: juankrete71 folded on the Flop
Seat 5: Lostboy57 showed [Ah Ac] and won (1295) with a pair of Aces
Seat 6: ij12 folded before Flop (didn't bet)
Seat 7: Gus H.B (button) showed [Ts Td] and lost with a pair of Tens
Seat 8: luky984 (small blind) folded before Flop
Seat 9: kellyjandrews (big blind) folded before Flop



PokerStars Hand #188553130869: Tournament #2353064675, 8500+1500 Hold'em No Limit - Level II (15/30) - 2018/07/09 21:24:25 ET
Table '2353064675 1' 9-max Seat #8 is the button
Seat 2: Bebe_Bacana (930 in chips) 
Seat 3: Arthur944 (2390 in chips) 
Seat 4: juankrete71 (435 in chips) 
Seat 5: Lostboy57 (1295 in chips) 
Seat 6: ij12 (520 in chips) 
Seat 7: Gus H.B (1590 in chips) 
Seat 8: luky984 (845 in chips) 
Seat 9: kellyjandrews (995 in chips) 
kellyjandrews: posts small blind 15
Bebe_Bacana: posts big blind 30
*** HOLE CARDS ***
Dealt to kellyjandrews [3c 3d]
Arthur944: folds 
juankrete71: calls 30
Lostboy57: folds 
ij12: folds 
Gus H.B: calls 30
luky984: calls 30
kellyjandrews: calls 15
Bebe_Bacana: checks 
*** FLOP *** [Jh 8h Ad]
kellyjandrews: checks 
Bebe_Bacana: checks 
juankrete71: checks 
Gus H.B: checks 
luky984: checks 
*** TURN *** [Jh 8h Ad] [5d]
kellyjandrews: checks 
Bebe_Bacana: checks 
juankrete71: checks 
Gus H.B: checks 
luky984: checks 
*** RIVER *** [Jh 8h Ad 5d] [9s]
kellyjandrews: bets 30
Bebe_Bacana: folds 
juankrete71: raises 90 to 120
Gus H.B: folds 
luky984: folds 
kellyjandrews: folds 
Uncalled bet (90) returned to juankrete71
juankrete71 collected 210 from pot
*** SUMMARY ***
Total pot 210 | Rake 0 
Board [Jh 8h Ad 5d 9s]
Seat 2: Bebe_Bacana (big blind) folded on the River
Seat 3: Arthur944 folded before Flop (didn't bet)
Seat 4: juankrete71 collected (210)
Seat 5: Lostboy57 folded before Flop (didn't bet)
Seat 6: ij12 folded before Flop (didn't bet)
Seat 7: Gus H.B folded on the River
Seat 8: luky984 (button) folded on the River
Seat 9: kellyjandrews (small blind) folded on the River



PokerStars Hand #188553161776: Tournament #2353064675, 8500+1500 Hold'em No Limit - Level III (25/50) - 2018/07/09 21:25:53 ET
Table '2353064675 1' 9-max Seat #9 is the button
Seat 2: Bebe_Bacana (900 in chips) 
Seat 3: Arthur944 (2390 in chips) 
Seat 4: juankrete71 (585 in chips) 
Seat 5: Lostboy57 (1295 in chips) 
Seat 6: ij12 (520 in chips) 
Seat 7: Gus H.B (1560 in chips) 
Seat 8: luky984 (815 in chips) 
Seat 9: kellyjandrews (935 in chips) 
Bebe_Bacana: posts small blind 25
Arthur944: posts big blind 50
*** HOLE CARDS ***
Dealt to kellyjandrews [Qh 4c]
juankrete71: calls 50
Lostboy57: folds 
ij12: calls 50
Gus H.B: folds 
luky984: folds 
kellyjandrews: folds 
Bebe_Bacana: folds 
Arthur944: checks 
*** FLOP *** [Ac 9c 8c]
Arthur944: checks 
juankrete71: checks 
ij12: bets 50
Arthur944: calls 50
juankrete71: folds 
*** TURN *** [Ac 9c 8c] [7c]
Arthur944: checks 
ij12: checks 
*** RIVER *** [Ac 9c 8c 7c] [Jd]
Arthur944: bets 275
ij12: folds 
Uncalled bet (275) returned to Arthur944
Arthur944 collected 275 from pot
Arthur944: doesn't show hand 
*** SUMMARY ***
Total pot 275 | Rake 0 
Board [Ac 9c 8c 7c Jd]
Seat 2: Bebe_Bacana (small blind) folded before Flop
Seat 3: Arthur944 (big blind) collected (275)
Seat 4: juankrete71 folded on the Flop
Seat 5: Lostboy57 folded before Flop (didn't bet)
Seat 6: ij12 folded on the River
Seat 7: Gus H.B folded before Flop (didn't bet)
Seat 8: luky984 folded before Flop (didn't bet)
Seat 9: kellyjandrews (button) folded before Flop (didn't bet)



PokerStars Hand #188553178976: Tournament #2353064675, 8500+1500 Hold'em No Limit - Level III (25/50) - 2018/07/09 21:26:42 ET
Table '2353064675 1' 9-max Seat #2 is the button
Seat 2: Bebe_Bacana (875 in chips) 
Seat 3: Arthur944 (2565 in chips) 
Seat 4: juankrete71 (535 in chips) 
Seat 5: Lostboy57 (1295 in chips) 
Seat 6: ij12 (420 in chips) 
Seat 7: Gus H.B (1560 in chips) 
Seat 8: luky984 (815 in chips) 
Seat 9: kellyjandrews (935 in chips) 
Arthur944: posts small blind 25
juankrete71: posts big blind 50
*** HOLE CARDS ***
Dealt to kellyjandrews [Ad 2c]
Lostboy57: folds 
ij12: folds 
Gus H.B: calls 50
luky984: folds 
kellyjandrews: folds 
Bebe_Bacana: folds 
Arthur944: calls 25
juankrete71: checks 
*** FLOP *** [8d 4s 9d]
Arthur944: checks 
juankrete71: bets 50
Gus H.B: calls 50
Arthur944: calls 50
*** TURN *** [8d 4s 9d] [5c]
Arthur944: checks 
juankrete71: bets 100
Gus H.B: calls 100
Arthur944: calls 100
*** RIVER *** [8d 4s 9d 5c] [Jh]
Arthur944: checks 
Gus H.B said, ":D"
juankrete71 has timed out
juankrete71: checks 
juankrete71 is disconnected 
Gus H.B: checks 
*** SHOW DOWN ***
Arthur944: shows [3s 8s] (a pair of Eights)
juankrete71: shows [4h 8c] (two pair, Eights and Fours)
Gus H.B: mucks hand 
juankrete71 collected 600 from pot
*** SUMMARY ***
Total pot 600 | Rake 0 
Board [8d 4s 9d 5c Jh]
Seat 2: Bebe_Bacana (button) folded before Flop (didn't bet)
Seat 3: Arthur944 (small blind) showed [3s 8s] and lost with a pair of Eights
Seat 4: juankrete71 (big blind) showed [4h 8c] and won (600) with two pair, Eights and Fours
Seat 5: Lostboy57 folded before Flop (didn't bet)
Seat 6: ij12 folded before Flop (didn't bet)
Seat 7: Gus H.B mucked [4c Kc]
Seat 8: luky984 folded before Flop (didn't bet)
Seat 9: kellyjandrews folded before Flop (didn't bet)



PokerStars Hand #188553222111: Tournament #2353064675, 8500+1500 Hold'em No Limit - Level III (25/50) - 2018/07/09 21:28:24 ET
Table '2353064675 1' 9-max Seat #3 is the button
Seat 2: Bebe_Bacana (875 in chips) 
Seat 3: Arthur944 (2365 in chips) 
Seat 4: juankrete71 (935 in chips) 
Seat 5: Lostboy57 (1295 in chips) 
Seat 6: ij12 (420 in chips) 
Seat 7: Gus H.B (1360 in chips) 
Seat 8: luky984 (815 in chips) 
Seat 9: kellyjandrews (935 in chips) 
juankrete71: posts small blind 25
Lostboy57: posts big blind 50
*** HOLE CARDS ***
Dealt to kellyjandrews [Ts Jc]
ij12: folds 
Gus H.B: calls 50
luky984: folds 
kellyjandrews: calls 50
Bebe_Bacana: folds 
Arthur944: calls 50
juankrete71: calls 25
Lostboy57: checks 
*** FLOP *** [As Ac Th]
juankrete71: bets 100
Lostboy57: folds 
Gus H.B: raises 100 to 200
kellyjandrews: folds 
Arthur944: calls 200
juankrete71: calls 100
*** TURN *** [As Ac Th] [Js]
juankrete71: checks 
Gus H.B: bets 50
Arthur944: calls 50
juankrete71: calls 50
*** RIVER *** [As Ac Th Js] [6c]
juankrete71: checks 
Gus H.B: checks 
Arthur944: bets 1000
juankrete71: folds 
Gus H.B said, "::D"
Gus H.B: folds 
Uncalled bet (1000) returned to Arthur944
Arthur944 collected 1000 from pot
Arthur944: doesn't show hand 
*** SUMMARY ***
Total pot 1000 | Rake 0 
Board [As Ac Th Js 6c]
Seat 2: Bebe_Bacana folded before Flop (didn't bet)
Seat 3: Arthur944 (button) collected (1000)
Seat 4: juankrete71 (small blind) folded on the River
Seat 5: Lostboy57 (big blind) folded on the Flop
Seat 6: ij12 folded before Flop (didn't bet)
Seat 7: Gus H.B folded on the River
Seat 8: luky984 folded before Flop (didn't bet)
Seat 9: kellyjandrews folded on the Flop



PokerStars Hand #188553257809: Tournament #2353064675, 8500+1500 Hold'em No Limit - Level III (25/50) - 2018/07/09 21:30:07 ET
Table '2353064675 1' 9-max Seat #4 is the button
Seat 2: Bebe_Bacana (875 in chips) 
Seat 3: Arthur944 (3065 in chips) 
Seat 4: juankrete71 (635 in chips) 
Seat 5: Lostboy57 (1245 in chips) 
Seat 6: ij12 (420 in chips) 
Seat 7: Gus H.B (1060 in chips) 
Seat 8: luky984 (815 in chips) 
Seat 9: kellyjandrews (885 in chips) 
Lostboy57: posts small blind 25
ij12: posts big blind 50
*** HOLE CARDS ***
Dealt to kellyjandrews [8h 5c]
Gus H.B: calls 50
luky984: calls 50
kellyjandrews: folds 
Bebe_Bacana: folds 
Arthur944: folds 
juankrete71: calls 50
Lostboy57: folds 
ij12: checks 
*** FLOP *** [4s Kh 2d]
ij12: checks 
Gus H.B: checks 
luky984: checks 
juankrete71: checks 
*** TURN *** [4s Kh 2d] [4c]
ij12: checks 
Gus H.B: bets 800
luky984: folds 
juankrete71: folds 
ij12: folds 
Uncalled bet (800) returned to Gus H.B
Gus H.B collected 225 from pot
Gus H.B: doesn't show hand 
*** SUMMARY ***
Total pot 225 | Rake 0 
Board [4s Kh 2d 4c]
Seat 2: Bebe_Bacana folded before Flop (didn't bet)
Seat 3: Arthur944 folded before Flop (didn't bet)
Seat 4: juankrete71 (button) folded on the Turn
Seat 5: Lostboy57 (small blind) folded before Flop
Seat 6: ij12 (big blind) folded on the Turn
Seat 7: Gus H.B collected (225)
Seat 8: luky984 folded on the Turn
Seat 9: kellyjandrews folded before Flop (didn't bet)



PokerStars Hand #188553276144: Tournament #2353064675, 8500+1500 Hold'em No Limit - Level IV (50/100) - 2018/07/09 21:31:01 ET
Table '2353064675 1' 9-max Seat #5 is the button
Seat 2: Bebe_Bacana (875 in chips) 
Seat 3: Arthur944 (3065 in chips) 
Seat 4: juankrete71 (585 in chips) 
Seat 5: Lostboy57 (1220 in chips) 
Seat 6: ij12 (370 in chips) 
Seat 7: Gus H.B (1235 in chips) 
Seat 8: luky984 (765 in chips) 
Seat 9: kellyjandrews (885 in chips) 
ij12: posts small blind 50
Gus H.B: posts big blind 100
*** HOLE CARDS ***
Dealt to kellyjandrews [7d Jh]
luky984: calls 100
kellyjandrews: folds 
Bebe_Bacana: calls 100
Arthur944: folds 
juankrete71: folds 
Lostboy57: folds 
ij12: calls 50
Gus H.B: checks 
*** FLOP *** [4s 2c Kh]
ij12: checks 
Gus H.B: checks 
luky984: checks 
Bebe_Bacana: checks 
*** TURN *** [4s 2c Kh] [Jc]
ij12: checks 
Gus H.B: checks 
luky984: checks 
Bebe_Bacana: checks 
*** RIVER *** [4s 2c Kh Jc] [9h]
ij12: checks 
Gus H.B: checks 
luky984: checks 
Bebe_Bacana: bets 400
ij12: folds 
Gus H.B said, "apostou  bebe"
Gus H.B: folds 
luky984: folds 
Uncalled bet (400) returned to Bebe_Bacana
Bebe_Bacana collected 400 from pot
Bebe_Bacana: doesn't show hand 
*** SUMMARY ***
Total pot 400 | Rake 0 
Board [4s 2c Kh Jc 9h]
Seat 2: Bebe_Bacana collected (400)
Seat 3: Arthur944 folded before Flop (didn't bet)
Seat 4: juankrete71 folded before Flop (didn't bet)
Seat 5: Lostboy57 (button) folded before Flop (didn't bet)
Seat 6: ij12 (small blind) folded on the River
Seat 7: Gus H.B (big blind) folded on the River
Seat 8: luky984 folded on the River
Seat 9: kellyjandrews folded before Flop (didn't bet)



PokerStars Hand #188553300211: Tournament #2353064675, 8500+1500 Hold'em No Limit - Level IV (50/100) - 2018/07/09 21:32:10 ET
Table '2353064675 1' 9-max Seat #6 is the button
Seat 2: Bebe_Bacana (1175 in chips) 
Seat 3: Arthur944 (3065 in chips) 
Seat 4: juankrete71 (585 in chips) 
Seat 5: Lostboy57 (1220 in chips) 
Seat 6: ij12 (270 in chips) 
Seat 7: Gus H.B (1135 in chips) 
Seat 8: luky984 (665 in chips) 
Seat 9: kellyjandrews (885 in chips) 
Gus H.B: posts small blind 50
luky984: posts big blind 100
*** HOLE CARDS ***
Dealt to kellyjandrews [3h 4h]
kellyjandrews: folds 
Bebe_Bacana: folds 
Arthur944: calls 100
juankrete71: folds 
Lostboy57: calls 100
ij12: calls 100
Gus H.B: raises 100 to 200
luky984: folds 
Arthur944: calls 100
Lostboy57: calls 100
ij12: raises 70 to 270 and is all-in
Gus H.B: calls 70
Arthur944: calls 70
Lostboy57: calls 70
*** FLOP *** [Ks Ad Qh]
Gus H.B: checks 
Arthur944: checks 
Lostboy57: checks 
*** TURN *** [Ks Ad Qh] [7c]
Gus H.B: checks 
Arthur944: checks 
Lostboy57: checks 
*** RIVER *** [Ks Ad Qh 7c] [Td]
Gus H.B: checks 
Arthur944: bets 200
Lostboy57: folds 
Gus H.B: folds 
Uncalled bet (200) returned to Arthur944
*** SHOW DOWN ***
Arthur944: shows [Jh Kd] (a straight, Ten to Ace)
ij12: shows [Tc Kc] (two pair, Kings and Tens)
Arthur944 collected 1180 from pot
ij12 finished the tournament in 8th place
*** SUMMARY ***
Total pot 1180 | Rake 0 
Board [Ks Ad Qh 7c Td]
Seat 2: Bebe_Bacana folded before Flop (didn't bet)
Seat 3: Arthur944 showed [Jh Kd] and won (1180) with a straight, Ten to Ace
Seat 4: juankrete71 folded before Flop (didn't bet)
Seat 5: Lostboy57 folded on the River
Seat 6: ij12 (button) showed [Tc Kc] and lost with two pair, Kings and Tens
Seat 7: Gus H.B (small blind) folded on the River
Seat 8: luky984 (big blind) folded before Flop
Seat 9: kellyjandrews folded before Flop (didn't bet)



PokerStars Hand #188553324387: Tournament #2353064675, 8500+1500 Hold'em No Limit - Level IV (50/100) - 2018/07/09 21:33:21 ET
Table '2353064675 1' 9-max Seat #7 is the button
Seat 2: Bebe_Bacana (1175 in chips) 
Seat 3: Arthur944 (3975 in chips) 
Seat 4: juankrete71 (585 in chips) 
Seat 5: Lostboy57 (950 in chips) 
Seat 7: Gus H.B (865 in chips) 
Seat 8: luky984 (565 in chips) 
Seat 9: kellyjandrews (885 in chips) 
luky984: posts small blind 50
kellyjandrews: posts big blind 100
*** HOLE CARDS ***
Dealt to kellyjandrews [As 3d]
Bebe_Bacana: calls 100
Arthur944: folds 
juankrete71: folds 
Lostboy57: folds 
Gus H.B: raises 765 to 865 and is all-in
luky984: folds 
kellyjandrews: folds 
Bebe_Bacana: calls 765
*** FLOP *** [6s 5d 9h]
*** TURN *** [6s 5d 9h] [2h]
Gus H.B said, "kkkkkk"
*** RIVER *** [6s 5d 9h 2h] [Qs]
*** SHOW DOWN ***
Bebe_Bacana: shows [Ac Ah] (a pair of Aces)
Gus H.B: shows [Tc 8h] (high card Queen)
Bebe_Bacana collected 1880 from pot
Gus H.B finished the tournament in 7th place
*** SUMMARY ***
Total pot 1880 | Rake 0 
Board [6s 5d 9h 2h Qs]
Seat 2: Bebe_Bacana showed [Ac Ah] and won (1880) with a pair of Aces
Seat 3: Arthur944 folded before Flop (didn't bet)
Seat 4: juankrete71 folded before Flop (didn't bet)
Seat 5: Lostboy57 folded before Flop (didn't bet)
Seat 7: Gus H.B (button) showed [Tc 8h] and lost with high card Queen
Seat 8: luky984 (small blind) folded before Flop
Seat 9: kellyjandrews (big blind) folded before Flop



PokerStars Hand #188553341105: Tournament #2353064675, 8500+1500 Hold'em No Limit - Level IV (50/100) - 2018/07/09 21:34:09 ET
Table '2353064675 1' 9-max Seat #8 is the button
Seat 2: Bebe_Bacana (2190 in chips) 
Seat 3: Arthur944 (3975 in chips) 
Seat 4: juankrete71 (585 in chips) 
Seat 5: Lostboy57 (950 in chips) 
Seat 8: luky984 (515 in chips) 
Seat 9: kellyjandrews (785 in chips) 
kellyjandrews: posts small blind 50
Bebe_Bacana: posts big blind 100
*** HOLE CARDS ***
Dealt to kellyjandrews [Ad 5s]
Arthur944: calls 100
juankrete71: folds 
Lostboy57: folds 
luky984: folds 
kellyjandrews: folds 
Bebe_Bacana: checks 
*** FLOP *** [5c 2h Qh]
Bebe_Bacana: checks 
Arthur944: checks 
*** TURN *** [5c 2h Qh] [4h]
Bebe_Bacana: checks 
Arthur944: checks 
*** RIVER *** [5c 2h Qh 4h] [2s]
Bebe_Bacana: checks 
Arthur944: checks 
*** SHOW DOWN ***
Bebe_Bacana: shows [Td 7c] (a pair of Deuces)
Arthur944: shows [7s 7d] (two pair, Sevens and Deuces)
Arthur944 collected 250 from pot
*** SUMMARY ***
Total pot 250 | Rake 0 
Board [5c 2h Qh 4h 2s]
Seat 2: Bebe_Bacana (big blind) showed [Td 7c] and lost with a pair of Deuces
Seat 3: Arthur944 showed [7s 7d] and won (250) with two pair, Sevens and Deuces
Seat 4: juankrete71 folded before Flop (didn't bet)
Seat 5: Lostboy57 folded before Flop (didn't bet)
Seat 8: luky984 (button) folded before Flop (didn't bet)
Seat 9: kellyjandrews (small blind) folded before Flop



PokerStars Hand #188553361348: Tournament #2353064675, 8500+1500 Hold'em No Limit - Level IV (50/100) - 2018/07/09 21:35:08 ET
Table '2353064675 1' 9-max Seat #9 is the button
Seat 2: Bebe_Bacana (2090 in chips) 
Seat 3: Arthur944 (4125 in chips) 
Seat 4: juankrete71 (585 in chips) 
Seat 5: Lostboy57 (950 in chips) 
Seat 8: luky984 (515 in chips) 
Seat 9: kellyjandrews (735 in chips) 
Bebe_Bacana: posts small blind 50
Arthur944: posts big blind 100
*** HOLE CARDS ***
Dealt to kellyjandrews [3d 9d]
juankrete71: calls 100
Lostboy57: folds 
luky984: folds 
kellyjandrews: folds 
Bebe_Bacana: calls 50
Arthur944: checks 
*** FLOP *** [Jh 8h Jc]
Bebe_Bacana: checks 
Arthur944: checks 
juankrete71: checks 
*** TURN *** [Jh 8h Jc] [Th]
Bebe_Bacana: checks 
Arthur944: checks 
juankrete71: checks 
*** RIVER *** [Jh 8h Jc Th] [8s]
Bebe_Bacana: checks 
Arthur944: checks 
juankrete71: checks 
*** SHOW DOWN ***
Bebe_Bacana: shows [5d Ah] (two pair, Jacks and Eights)
Arthur944: shows [Ts 5c] (two pair, Jacks and Tens)
juankrete71: mucks hand 
Arthur944 collected 300 from pot
*** SUMMARY ***
Total pot 300 | Rake 0 
Board [Jh 8h Jc Th 8s]
Seat 2: Bebe_Bacana (small blind) showed [5d Ah] and lost with two pair, Jacks and Eights
Seat 3: Arthur944 (big blind) showed [Ts 5c] and won (300) with two pair, Jacks and Tens
Seat 4: juankrete71 mucked [7h Kd]
Seat 5: Lostboy57 folded before Flop (didn't bet)
Seat 8: luky984 folded before Flop (didn't bet)
Seat 9: kellyjandrews (button) folded before Flop (didn't bet)



PokerStars Hand #188553382765: Tournament #2353064675, 8500+1500 Hold'em No Limit - Level V (75/150) - 2018/07/09 21:36:10 ET
Table '2353064675 1' 9-max Seat #2 is the button
Seat 2: Bebe_Bacana (1990 in chips) 
Seat 3: Arthur944 (4325 in chips) 
Seat 4: juankrete71 (485 in chips) 
Seat 5: Lostboy57 (950 in chips) 
Seat 8: luky984 (515 in chips) 
Seat 9: kellyjandrews (735 in chips) 
Arthur944: posts small blind 75
juankrete71: posts big blind 150
*** HOLE CARDS ***
Dealt to kellyjandrews [7h 7d]
Lostboy57: folds 
luky984: folds 
kellyjandrews: raises 150 to 300
Bebe_Bacana: folds 
Arthur944: folds 
juankrete71: folds 
Uncalled bet (150) returned to kellyjandrews
kellyjandrews collected 375 from pot
kellyjandrews: doesn't show hand 
*** SUMMARY ***
Total pot 375 | Rake 0 
Seat 2: Bebe_Bacana (button) folded before Flop (didn't bet)
Seat 3: Arthur944 (small blind) folded before Flop
Seat 4: juankrete71 (big blind) folded before Flop
Seat 5: Lostboy57 folded before Flop (didn't bet)
Seat 8: luky984 folded before Flop (didn't bet)
Seat 9: kellyjandrews collected (375)



PokerStars Hand #188553392561: Tournament #2353064675, 8500+1500 Hold'em No Limit - Level V (75/150) - 2018/07/09 21:36:38 ET
Table '2353064675 1' 9-max Seat #3 is the button
Seat 2: Bebe_Bacana (1990 in chips) 
Seat 3: Arthur944 (4250 in chips) 
Seat 4: juankrete71 (335 in chips) 
Seat 5: Lostboy57 (950 in chips) 
Seat 8: luky984 (515 in chips) 
Seat 9: kellyjandrews (960 in chips) 
juankrete71: posts small blind 75
Lostboy57: posts big blind 150
*** HOLE CARDS ***
Dealt to kellyjandrews [Td 9c]
luky984: calls 150
kellyjandrews: folds 
Bebe_Bacana: calls 150
Arthur944: folds 
juankrete71: calls 75
Lostboy57: checks 
*** FLOP *** [Qc 5c 7s]
juankrete71: checks 
Lostboy57: checks 
luky984: bets 150
Bebe_Bacana: raises 150 to 300
juankrete71: folds 
Lostboy57: folds 
luky984: raises 65 to 365 and is all-in
Bebe_Bacana: calls 65
*** TURN *** [Qc 5c 7s] [4h]
*** RIVER *** [Qc 5c 7s 4h] [6h]
*** SHOW DOWN ***
luky984: shows [Qh Js] (a pair of Queens)
Bebe_Bacana: shows [Qd Ts] (a pair of Queens - lower kicker)
luky984 collected 1330 from pot
*** SUMMARY ***
Total pot 1330 | Rake 0 
Board [Qc 5c 7s 4h 6h]
Seat 2: Bebe_Bacana showed [Qd Ts] and lost with a pair of Queens
Seat 3: Arthur944 (button) folded before Flop (didn't bet)
Seat 4: juankrete71 (small blind) folded on the Flop
Seat 5: Lostboy57 (big blind) folded on the Flop
Seat 8: luky984 showed [Qh Js] and won (1330) with a pair of Queens
Seat 9: kellyjandrews folded before Flop (didn't bet)



PokerStars Hand #188553410188: Tournament #2353064675, 8500+1500 Hold'em No Limit - Level V (75/150) - 2018/07/09 21:37:29 ET
Table '2353064675 1' 9-max Seat #4 is the button
Seat 2: Bebe_Bacana (1475 in chips) 
Seat 3: Arthur944 (4250 in chips) 
Seat 4: juankrete71 (185 in chips) 
Seat 5: Lostboy57 (800 in chips) 
Seat 8: luky984 (1330 in chips) 
Seat 9: kellyjandrews (960 in chips) 
Lostboy57: posts small blind 75
luky984: posts big blind 150
*** HOLE CARDS ***
Dealt to kellyjandrews [3h Th]
kellyjandrews: folds 
Bebe_Bacana: calls 150
Arthur944: calls 150
juankrete71: folds 
Lostboy57: calls 75
luky984: checks 
*** FLOP *** [6h 7s 5c]
Lostboy57: bets 300
luky984: calls 300
Bebe_Bacana: folds 
Arthur944: folds 
*** TURN *** [6h 7s 5c] [4s]
Lostboy57: bets 350 and is all-in
luky984: calls 350
*** RIVER *** [6h 7s 5c 4s] [Ts]
*** SHOW DOWN ***
Lostboy57: shows [Ad Ks] (high card Ace)
luky984: shows [4h 7c] (two pair, Sevens and Fours)
luky984 collected 1900 from pot
Lostboy57 finished the tournament in 6th place
*** SUMMARY ***
Total pot 1900 | Rake 0 
Board [6h 7s 5c 4s Ts]
Seat 2: Bebe_Bacana folded on the Flop
Seat 3: Arthur944 folded on the Flop
Seat 4: juankrete71 (button) folded before Flop (didn't bet)
Seat 5: Lostboy57 (small blind) showed [Ad Ks] and lost with high card Ace
Seat 8: luky984 (big blind) showed [4h 7c] and won (1900) with two pair, Sevens and Fours
Seat 9: kellyjandrews folded before Flop (didn't bet)



PokerStars Hand #188553428881: Tournament #2353064675, 8500+1500 Hold'em No Limit - Level V (75/150) - 2018/07/09 21:38:23 ET
Table '2353064675 1' 9-max Seat #8 is the button
Seat 2: Bebe_Bacana (1325 in chips) 
Seat 3: Arthur944 (4100 in chips) 
Seat 4: juankrete71 (185 in chips) 
Seat 8: luky984 (2430 in chips) 
Seat 9: kellyjandrews (960 in chips) 
kellyjandrews: posts small blind 75
Bebe_Bacana: posts big blind 150
*** HOLE CARDS ***
Dealt to kellyjandrews [5s Th]
Arthur944: folds 
juankrete71: folds 
luky984: folds 
kellyjandrews: folds 
Uncalled bet (75) returned to Bebe_Bacana
Bebe_Bacana collected 150 from pot
Bebe_Bacana: doesn't show hand 
*** SUMMARY ***
Total pot 150 | Rake 0 
Seat 2: Bebe_Bacana (big blind) collected (150)
Seat 3: Arthur944 folded before Flop (didn't bet)
Seat 4: juankrete71 folded before Flop (didn't bet)
Seat 8: luky984 (button) folded before Flop (didn't bet)
Seat 9: kellyjandrews (small blind) folded before Flop



PokerStars Hand #188553432949: Tournament #2353064675, 8500+1500 Hold'em No Limit - Level V (75/150) - 2018/07/09 21:38:34 ET
Table '2353064675 1' 9-max Seat #9 is the button
Seat 2: Bebe_Bacana (1400 in chips) 
Seat 3: Arthur944 (4100 in chips) 
Seat 4: juankrete71 (185 in chips) 
Seat 8: luky984 (2430 in chips) 
Seat 9: kellyjandrews (885 in chips) 
Bebe_Bacana: posts small blind 75
Arthur944: posts big blind 150
*** HOLE CARDS ***
Dealt to kellyjandrews [3s 7h]
juankrete71: raises 35 to 185 and is all-in
luky984: folds 
kellyjandrews: folds 
Bebe_Bacana: calls 110
Arthur944: calls 35
*** FLOP *** [6c 4d 9h]
Bebe_Bacana: checks 
Arthur944: checks 
*** TURN *** [6c 4d 9h] [8d]
Bebe_Bacana: checks 
Arthur944: checks 
*** RIVER *** [6c 4d 9h 8d] [2d]
Bebe_Bacana: checks 
Arthur944: bets 150
Bebe_Bacana: folds 
Uncalled bet (150) returned to Arthur944
*** SHOW DOWN ***
Arthur944: shows [8s Jh] (a pair of Eights)
juankrete71: shows [2s 2h] (three of a kind, Deuces)
juankrete71 collected 555 from pot
*** SUMMARY ***
Total pot 555 | Rake 0 
Board [6c 4d 9h 8d 2d]
Seat 2: Bebe_Bacana (small blind) folded on the River
Seat 3: Arthur944 (big blind) showed [8s Jh] and lost with a pair of Eights
Seat 4: juankrete71 showed [2s 2h] and won (555) with three of a kind, Deuces
Seat 8: luky984 folded before Flop (didn't bet)
Seat 9: kellyjandrews (button) folded before Flop (didn't bet)



PokerStars Hand #188553446891: Tournament #2353064675, 8500+1500 Hold'em No Limit - Level V (75/150) - 2018/07/09 21:39:14 ET
Table '2353064675 1' 9-max Seat #2 is the button
Seat 2: Bebe_Bacana (1215 in chips) 
Seat 3: Arthur944 (3915 in chips) 
Seat 4: juankrete71 (555 in chips) 
Seat 8: luky984 (2430 in chips) 
Seat 9: kellyjandrews (885 in chips) 
Arthur944: posts small blind 75
juankrete71: posts big blind 150
*** HOLE CARDS ***
Dealt to kellyjandrews [Th 6c]
luky984: calls 150
kellyjandrews: folds 
Bebe_Bacana: folds 
Arthur944: calls 75
juankrete71: checks 
*** FLOP *** [2d Ts Qs]
Arthur944: checks 
juankrete71: bets 150
luky984: calls 150
Arthur944: folds 
*** TURN *** [2d Ts Qs] [8s]
juankrete71: bets 255 and is all-in
luky984: folds 
Uncalled bet (255) returned to juankrete71
juankrete71 collected 750 from pot
*** SUMMARY ***
Total pot 750 | Rake 0 
Board [2d Ts Qs 8s]
Seat 2: Bebe_Bacana (button) folded before Flop (didn't bet)
Seat 3: Arthur944 (small blind) folded on the Flop
Seat 4: juankrete71 (big blind) collected (750)
Seat 8: luky984 folded on the Turn
Seat 9: kellyjandrews folded before Flop (didn't bet)



PokerStars Hand #188553460216: Tournament #2353064675, 8500+1500 Hold'em No Limit - Level V (75/150) - 2018/07/09 21:39:52 ET
Table '2353064675 1' 9-max Seat #3 is the button
Seat 2: Bebe_Bacana (1215 in chips) 
Seat 3: Arthur944 (3765 in chips) 
Seat 4: juankrete71 (1005 in chips) 
Seat 8: luky984 (2130 in chips) 
Seat 9: kellyjandrews (885 in chips) 
juankrete71: posts small blind 75
luky984: posts big blind 150
*** HOLE CARDS ***
Dealt to kellyjandrews [Qd 9c]
kellyjandrews: folds 
Bebe_Bacana: folds 
Arthur944: calls 150
juankrete71: calls 75
luky984: checks 
*** FLOP *** [5d Ac 4d]
juankrete71: checks 
luky984: bets 150
Arthur944: folds 
juankrete71: folds 
Uncalled bet (150) returned to luky984
luky984 collected 450 from pot
luky984: doesn't show hand 
*** SUMMARY ***
Total pot 450 | Rake 0 
Board [5d Ac 4d]
Seat 2: Bebe_Bacana folded before Flop (didn't bet)
Seat 3: Arthur944 (button) folded on the Flop
Seat 4: juankrete71 (small blind) folded on the Flop
Seat 8: luky984 (big blind) collected (450)
Seat 9: kellyjandrews folded before Flop (didn't bet)



PokerStars Hand #188553471580: Tournament #2353064675, 8500+1500 Hold'em No Limit - Level V (75/150) - 2018/07/09 21:40:25 ET
Table '2353064675 1' 9-max Seat #4 is the button
Seat 2: Bebe_Bacana (1215 in chips) 
Seat 3: Arthur944 (3615 in chips) 
Seat 4: juankrete71 (855 in chips) 
Seat 8: luky984 (2430 in chips) 
Seat 9: kellyjandrews (885 in chips) 
luky984: posts small blind 75
kellyjandrews: posts big blind 150
*** HOLE CARDS ***
Dealt to kellyjandrews [6s Jh]
Bebe_Bacana: calls 150
Arthur944: folds 
juankrete71: calls 150
luky984: folds 
kellyjandrews: checks 
*** FLOP *** [Qh Kd 9d]
kellyjandrews: checks 
Bebe_Bacana: bets 450
juankrete71: raises 255 to 705 and is all-in
kellyjandrews: folds 
Bebe_Bacana: calls 255
*** TURN *** [Qh Kd 9d] [Qs]
*** RIVER *** [Qh Kd 9d Qs] [Th]
*** SHOW DOWN ***
Bebe_Bacana: shows [Kc Jd] (a straight, Nine to King)
juankrete71: shows [Tc Js] (a straight, Nine to King)
Bebe_Bacana collected 968 from pot
juankrete71 collected 967 from pot
*** SUMMARY ***
Total pot 1935 | Rake 0 
Board [Qh Kd 9d Qs Th]
Seat 2: Bebe_Bacana showed [Kc Jd] and won (968) with a straight, Nine to King
Seat 3: Arthur944 folded before Flop (didn't bet)
Seat 4: juankrete71 (button) showed [Tc Js] and won (967) with a straight, Nine to King
Seat 8: luky984 (small blind) folded before Flop
Seat 9: kellyjandrews (big blind) folded on the Flop



PokerStars Hand #188553484071: Tournament #2353064675, 8500+1500 Hold'em No Limit - Level VI (100/200) - 2018/07/09 21:41:01 ET
Table '2353064675 1' 9-max Seat #8 is the button
Seat 2: Bebe_Bacana (1328 in chips) 
Seat 3: Arthur944 (3615 in chips) 
Seat 4: juankrete71 (967 in chips) 
Seat 8: luky984 (2355 in chips) 
Seat 9: kellyjandrews (735 in chips) 
kellyjandrews: posts small blind 100
Bebe_Bacana: posts big blind 200
*** HOLE CARDS ***
Dealt to kellyjandrews [5h 6d]
Arthur944: folds 
juankrete71: raises 200 to 400
luky984: folds 
kellyjandrews: folds 
Bebe_Bacana: folds 
Uncalled bet (200) returned to juankrete71
juankrete71 collected 500 from pot
*** SUMMARY ***
Total pot 500 | Rake 0 
Seat 2: Bebe_Bacana (big blind) folded before Flop
Seat 3: Arthur944 folded before Flop (didn't bet)
Seat 4: juankrete71 collected (500)
Seat 8: luky984 (button) folded before Flop (didn't bet)
Seat 9: kellyjandrews (small blind) folded before Flop



PokerStars Hand #188553489515: Tournament #2353064675, 8500+1500 Hold'em No Limit - Level VI (100/200) - 2018/07/09 21:41:17 ET
Table '2353064675 1' 9-max Seat #9 is the button
Seat 2: Bebe_Bacana (1128 in chips) 
Seat 3: Arthur944 (3615 in chips) 
Seat 4: juankrete71 (1267 in chips) 
Seat 8: luky984 (2355 in chips) 
Seat 9: kellyjandrews (635 in chips) 
Bebe_Bacana: posts small blind 100
Arthur944: posts big blind 200
*** HOLE CARDS ***
Dealt to kellyjandrews [7s 7h]
juankrete71: folds 
luky984: folds 
kellyjandrews: raises 435 to 635 and is all-in
Bebe_Bacana: folds 
Arthur944: calls 435
*** FLOP *** [Qs Ad As]
*** TURN *** [Qs Ad As] [6h]
*** RIVER *** [Qs Ad As 6h] [4h]
*** SHOW DOWN ***
Arthur944: shows [Kh Ks] (two pair, Aces and Kings)
kellyjandrews: shows [7s 7h] (two pair, Aces and Sevens)
Arthur944 collected 1370 from pot
kellyjandrews finished the tournament in 5th place
*** SUMMARY ***
Total pot 1370 | Rake 0 
Board [Qs Ad As 6h 4h]
Seat 2: Bebe_Bacana (small blind) folded before Flop
Seat 3: Arthur944 (big blind) showed [Kh Ks] and won (1370) with two pair, Aces and Kings
Seat 4: juankrete71 folded before Flop (didn't bet)
Seat 8: luky984 folded before Flop (didn't bet)
Seat 9: kellyjandrews (button) showed [7s 7h] and lost with two pair, Aces and Sevens



