﻿PokerStars Hand #188643112293: Tournament #2355158506, 8800+1200 Hold'em No Limit - Level I (10/20) - 2018/07/12 12:57:19 ET
Table '2355158506 1' 3-max Seat #1 is the button
Seat 1: kellyjandrews (500 in chips) 
Seat 2: airjordan106 (500 in chips) 
Seat 3: vvv00174 (500 in chips) 
airjordan106: posts small blind 10
vvv00174: posts big blind 20
*** HOLE CARDS ***
Dealt to kellyjandrews [Ts 9s]
kellyjandrews: folds 
airjordan106: calls 10
vvv00174: checks 
*** FLOP *** [7h Ad 7d]
airjordan106: checks 
vvv00174: checks 
*** TURN *** [7h Ad 7d] [5h]
airjordan106: checks 
vvv00174: checks 
*** RIVER *** [7h Ad 7d 5h] [5c]
airjordan106: checks 
vvv00174: checks 
*** SHOW DOWN ***
airjordan106: shows [Jd 4d] (two pair, Sevens and Fives)
vvv00174: shows [Qd 3s] (two pair, Sevens and Fives)
airjordan106 collected 20 from pot
vvv00174 collected 20 from pot
*** SUMMARY ***
Total pot 40 | Rake 0 
Board [7h Ad 7d 5h 5c]
Seat 1: kellyjandrews (button) folded before Flop (didn't bet)
Seat 2: airjordan106 (small blind) showed [Jd 4d] and won (20) with two pair, Sevens and Fives
Seat 3: vvv00174 (big blind) showed [Qd 3s] and won (20) with two pair, Sevens and Fives



PokerStars Hand #188643122283: Tournament #2355158506, 8800+1200 Hold'em No Limit - Level I (10/20) - 2018/07/12 12:57:40 ET
Table '2355158506 1' 3-max Seat #2 is the button
Seat 1: kellyjandrews (500 in chips) 
Seat 2: airjordan106 (500 in chips) 
Seat 3: vvv00174 (500 in chips) 
vvv00174: posts small blind 10
kellyjandrews: posts big blind 20
*** HOLE CARDS ***
Dealt to kellyjandrews [3h Qs]
airjordan106: calls 20
vvv00174: calls 10
kellyjandrews: checks 
*** FLOP *** [Kc 8c 9c]
vvv00174: checks 
kellyjandrews: checks 
airjordan106: checks 
*** TURN *** [Kc 8c 9c] [Td]
vvv00174: checks 
kellyjandrews: checks 
airjordan106: checks 
*** RIVER *** [Kc 8c 9c Td] [Kd]
vvv00174: checks 
kellyjandrews: bets 20
airjordan106: folds 
vvv00174: folds 
Uncalled bet (20) returned to kellyjandrews
kellyjandrews collected 60 from pot
kellyjandrews: doesn't show hand 
*** SUMMARY ***
Total pot 60 | Rake 0 
Board [Kc 8c 9c Td Kd]
Seat 1: kellyjandrews (big blind) collected (60)
Seat 2: airjordan106 (button) folded on the River
Seat 3: vvv00174 (small blind) folded on the River



PokerStars Hand #188643133739: Tournament #2355158506, 8800+1200 Hold'em No Limit - Level I (10/20) - 2018/07/12 12:58:04 ET
Table '2355158506 1' 3-max Seat #3 is the button
Seat 1: kellyjandrews (540 in chips) 
Seat 2: airjordan106 (480 in chips) 
Seat 3: vvv00174 (480 in chips) 
kellyjandrews: posts small blind 10
airjordan106: posts big blind 20
*** HOLE CARDS ***
Dealt to kellyjandrews [5s 2c]
vvv00174: raises 20 to 40
kellyjandrews: folds 
airjordan106: calls 20
*** FLOP *** [Jd 5c 9d]
airjordan106: checks 
vvv00174: bets 20
airjordan106: calls 20
*** TURN *** [Jd 5c 9d] [Js]
airjordan106: checks 
vvv00174: bets 20
airjordan106: calls 20
*** RIVER *** [Jd 5c 9d Js] [6d]
airjordan106: checks 
vvv00174: bets 80
airjordan106: calls 80
*** SHOW DOWN ***
vvv00174: shows [Ac Jh] (three of a kind, Jacks)
airjordan106: mucks hand 
vvv00174 collected 330 from pot
*** SUMMARY ***
Total pot 330 | Rake 0 
Board [Jd 5c 9d Js 6d]
Seat 1: kellyjandrews (small blind) folded before Flop
Seat 2: airjordan106 (big blind) mucked [9h 8s]
Seat 3: vvv00174 (button) showed [Ac Jh] and won (330) with three of a kind, Jacks



PokerStars Hand #188643146946: Tournament #2355158506, 8800+1200 Hold'em No Limit - Level I (10/20) - 2018/07/12 12:58:32 ET
Table '2355158506 1' 3-max Seat #1 is the button
Seat 1: kellyjandrews (530 in chips) 
Seat 2: airjordan106 (320 in chips) 
Seat 3: vvv00174 (650 in chips) 
airjordan106: posts small blind 10
vvv00174: posts big blind 20
*** HOLE CARDS ***
Dealt to kellyjandrews [Ac 8d]
kellyjandrews: calls 20
airjordan106: calls 10
vvv00174: checks 
*** FLOP *** [As 3s 9h]
airjordan106: checks 
vvv00174: checks 
kellyjandrews: bets 20
airjordan106: calls 20
vvv00174: calls 20
*** TURN *** [As 3s 9h] [2h]
airjordan106: checks 
vvv00174: checks 
kellyjandrews: bets 20
airjordan106: calls 20
vvv00174: calls 20
*** RIVER *** [As 3s 9h 2h] [5d]
airjordan106: checks 
vvv00174: checks 
kellyjandrews: bets 90
airjordan106: folds 
vvv00174: folds 
Uncalled bet (90) returned to kellyjandrews
kellyjandrews collected 180 from pot
kellyjandrews: doesn't show hand 
*** SUMMARY ***
Total pot 180 | Rake 0 
Board [As 3s 9h 2h 5d]
Seat 1: kellyjandrews (button) collected (180)
Seat 2: airjordan106 (small blind) folded on the River
Seat 3: vvv00174 (big blind) folded on the River



PokerStars Hand #188643168683: Tournament #2355158506, 8800+1200 Hold'em No Limit - Level I (10/20) - 2018/07/12 12:59:17 ET
Table '2355158506 1' 3-max Seat #2 is the button
Seat 1: kellyjandrews (650 in chips) 
Seat 2: airjordan106 (260 in chips) 
Seat 3: vvv00174 (590 in chips) 
vvv00174: posts small blind 10
kellyjandrews: posts big blind 20
*** HOLE CARDS ***
Dealt to kellyjandrews [8d 7d]
airjordan106: calls 20
vvv00174: calls 10
kellyjandrews: checks 
*** FLOP *** [Kd 6s Ac]
vvv00174: checks 
kellyjandrews: checks 
airjordan106: checks 
*** TURN *** [Kd 6s Ac] [Ks]
vvv00174: checks 
kellyjandrews: checks 
airjordan106: checks 
*** RIVER *** [Kd 6s Ac Ks] [2s]
vvv00174: checks 
kellyjandrews: checks 
airjordan106: checks 
*** SHOW DOWN ***
vvv00174: shows [5d 3d] (a pair of Kings)
kellyjandrews: shows [8d 7d] (a pair of Kings - Ace+Eight kicker)
airjordan106: shows [5h Th] (a pair of Kings - Ace+Ten kicker)
airjordan106 collected 60 from pot
*** SUMMARY ***
Total pot 60 | Rake 0 
Board [Kd 6s Ac Ks 2s]
Seat 1: kellyjandrews (big blind) showed [8d 7d] and lost with a pair of Kings
Seat 2: airjordan106 (button) showed [5h Th] and won (60) with a pair of Kings
Seat 3: vvv00174 (small blind) showed [5d 3d] and lost with a pair of Kings



PokerStars Hand #188643177825: Tournament #2355158506, 8800+1200 Hold'em No Limit - Level I (10/20) - 2018/07/12 12:59:36 ET
Table '2355158506 1' 3-max Seat #3 is the button
Seat 1: kellyjandrews (630 in chips) 
Seat 2: airjordan106 (300 in chips) 
Seat 3: vvv00174 (570 in chips) 
kellyjandrews: posts small blind 10
airjordan106: posts big blind 20
*** HOLE CARDS ***
Dealt to kellyjandrews [As 8d]
vvv00174: calls 20
kellyjandrews: calls 10
airjordan106: checks 
*** FLOP *** [8c 7h Td]
kellyjandrews: bets 20
airjordan106: calls 20
vvv00174: calls 20
*** TURN *** [8c 7h Td] [Jd]
kellyjandrews: bets 20
airjordan106: calls 20
vvv00174: calls 20
*** RIVER *** [8c 7h Td Jd] [Qd]
kellyjandrews: bets 20
airjordan106: folds 
vvv00174: folds 
Uncalled bet (20) returned to kellyjandrews
kellyjandrews collected 180 from pot
kellyjandrews: doesn't show hand 
*** SUMMARY ***
Total pot 180 | Rake 0 
Board [8c 7h Td Jd Qd]
Seat 1: kellyjandrews (small blind) collected (180)
Seat 2: airjordan106 (big blind) folded on the River
Seat 3: vvv00174 (button) folded on the River



PokerStars Hand #188643190626: Tournament #2355158506, 8800+1200 Hold'em No Limit - Level I (10/20) - 2018/07/12 13:00:03 ET
Table '2355158506 1' 3-max Seat #1 is the button
Seat 1: kellyjandrews (750 in chips) 
Seat 2: airjordan106 (240 in chips) 
Seat 3: vvv00174 (510 in chips) 
airjordan106: posts small blind 10
vvv00174: posts big blind 20
*** HOLE CARDS ***
Dealt to kellyjandrews [Jh Qs]
kellyjandrews: raises 40 to 60
airjordan106: folds 
vvv00174: calls 40
*** FLOP *** [6c Jc 8h]
vvv00174: checks 
kellyjandrews: bets 65
vvv00174: calls 65
*** TURN *** [6c Jc 8h] [Kc]
vvv00174: checks 
kellyjandrews: checks 
*** RIVER *** [6c Jc 8h Kc] [Ks]
vvv00174: checks 
kellyjandrews: checks 
*** SHOW DOWN ***
vvv00174: shows [9d Td] (a pair of Kings)
kellyjandrews: shows [Jh Qs] (two pair, Kings and Jacks)
kellyjandrews collected 260 from pot
*** SUMMARY ***
Total pot 260 | Rake 0 
Board [6c Jc 8h Kc Ks]
Seat 1: kellyjandrews (button) showed [Jh Qs] and won (260) with two pair, Kings and Jacks
Seat 2: airjordan106 (small blind) folded before Flop
Seat 3: vvv00174 (big blind) showed [9d Td] and lost with a pair of Kings



PokerStars Hand #188643202249: Tournament #2355158506, 8800+1200 Hold'em No Limit - Level II (15/30) - 2018/07/12 13:00:26 ET
Table '2355158506 1' 3-max Seat #2 is the button
Seat 1: kellyjandrews (885 in chips) 
Seat 2: airjordan106 (230 in chips) 
Seat 3: vvv00174 (385 in chips) 
vvv00174: posts small blind 15
kellyjandrews: posts big blind 30
*** HOLE CARDS ***
Dealt to kellyjandrews [Kd 9h]
airjordan106: calls 30
vvv00174: calls 15
kellyjandrews: checks 
*** FLOP *** [Qh 4s Kc]
vvv00174: checks 
kellyjandrews: bets 30
airjordan106: folds 
vvv00174: calls 30
*** TURN *** [Qh 4s Kc] [7s]
vvv00174: checks 
kellyjandrews: bets 30
vvv00174: folds 
Uncalled bet (30) returned to kellyjandrews
kellyjandrews collected 150 from pot
kellyjandrews: doesn't show hand 
*** SUMMARY ***
Total pot 150 | Rake 0 
Board [Qh 4s Kc 7s]
Seat 1: kellyjandrews (big blind) collected (150)
Seat 2: airjordan106 (button) folded on the Flop
Seat 3: vvv00174 (small blind) folded on the Turn



PokerStars Hand #188643211856: Tournament #2355158506, 8800+1200 Hold'em No Limit - Level II (15/30) - 2018/07/12 13:00:45 ET
Table '2355158506 1' 3-max Seat #3 is the button
Seat 1: kellyjandrews (975 in chips) 
Seat 2: airjordan106 (200 in chips) 
Seat 3: vvv00174 (325 in chips) 
kellyjandrews: posts small blind 15
airjordan106: posts big blind 30
*** HOLE CARDS ***
Dealt to kellyjandrews [Ad Td]
vvv00174: raises 30 to 60
kellyjandrews: raises 30 to 90
airjordan106: raises 110 to 200 and is all-in
vvv00174: folds 
kellyjandrews: calls 110
*** FLOP *** [7d 9h Kc]
*** TURN *** [7d 9h Kc] [2d]
*** RIVER *** [7d 9h Kc 2d] [Jc]
*** SHOW DOWN ***
kellyjandrews: shows [Ad Td] (high card Ace)
airjordan106: shows [As Ac] (a pair of Aces)
airjordan106 collected 460 from pot
*** SUMMARY ***
Total pot 460 | Rake 0 
Board [7d 9h Kc 2d Jc]
Seat 1: kellyjandrews (small blind) showed [Ad Td] and lost with high card Ace
Seat 2: airjordan106 (big blind) showed [As Ac] and won (460) with a pair of Aces
Seat 3: vvv00174 (button) folded before Flop



PokerStars Hand #188643224551: Tournament #2355158506, 8800+1200 Hold'em No Limit - Level II (15/30) - 2018/07/12 13:01:10 ET
Table '2355158506 1' 3-max Seat #1 is the button
Seat 1: kellyjandrews (775 in chips) 
Seat 2: airjordan106 (460 in chips) 
Seat 3: vvv00174 (265 in chips) 
airjordan106: posts small blind 15
vvv00174: posts big blind 30
*** HOLE CARDS ***
Dealt to kellyjandrews [9s 8s]
kellyjandrews: calls 30
airjordan106: folds 
vvv00174: checks 
*** FLOP *** [Ks 7s 7d]
vvv00174: checks 
kellyjandrews: bets 30
vvv00174: calls 30
*** TURN *** [Ks 7s 7d] [2h]
vvv00174: checks 
kellyjandrews: checks 
*** RIVER *** [Ks 7s 7d 2h] [Js]
vvv00174: checks 
kellyjandrews: bets 135
vvv00174: folds 
Uncalled bet (135) returned to kellyjandrews
kellyjandrews collected 135 from pot
kellyjandrews: doesn't show hand 
*** SUMMARY ***
Total pot 135 | Rake 0 
Board [Ks 7s 7d 2h Js]
Seat 1: kellyjandrews (button) collected (135)
Seat 2: airjordan106 (small blind) folded before Flop
Seat 3: vvv00174 (big blind) folded on the River



PokerStars Hand #188643237521: Tournament #2355158506, 8800+1200 Hold'em No Limit - Level II (15/30) - 2018/07/12 13:01:33 ET
Table '2355158506 1' 3-max Seat #2 is the button
Seat 1: kellyjandrews (850 in chips) 
Seat 2: airjordan106 (445 in chips) 
Seat 3: vvv00174 (205 in chips) 
vvv00174: posts small blind 15
kellyjandrews: posts big blind 30
*** HOLE CARDS ***
Dealt to kellyjandrews [Jh Ac]
airjordan106: folds 
vvv00174: raises 175 to 205 and is all-in
kellyjandrews: calls 175
*** FLOP *** [8h 8c 3c]
*** TURN *** [8h 8c 3c] [9h]
*** RIVER *** [8h 8c 3c 9h] [5c]
*** SHOW DOWN ***
vvv00174: shows [As 2d] (a pair of Eights)
kellyjandrews: shows [Jh Ac] (a pair of Eights - Ace+Jack kicker)
kellyjandrews collected 410 from pot
vvv00174 finished the tournament in 3rd place
*** SUMMARY ***
Total pot 410 | Rake 0 
Board [8h 8c 3c 9h 5c]
Seat 1: kellyjandrews (big blind) showed [Jh Ac] and won (410) with a pair of Eights
Seat 2: airjordan106 (button) folded before Flop (didn't bet)
Seat 3: vvv00174 (small blind) showed [As 2d] and lost with a pair of Eights



PokerStars Hand #188643248065: Tournament #2355158506, 8800+1200 Hold'em No Limit - Level II (15/30) - 2018/07/12 13:01:52 ET
Table '2355158506 1' 3-max Seat #1 is the button
Seat 1: kellyjandrews (1055 in chips) 
Seat 2: airjordan106 (445 in chips) 
kellyjandrews: posts small blind 15
airjordan106: posts big blind 30
*** HOLE CARDS ***
Dealt to kellyjandrews [Ts As]
kellyjandrews: calls 15
airjordan106: checks 
*** FLOP *** [Kd 5s Kc]
airjordan106: checks 
kellyjandrews: checks 
*** TURN *** [Kd 5s Kc] [Kh]
airjordan106: checks 
kellyjandrews: bets 30
airjordan106: folds 
Uncalled bet (30) returned to kellyjandrews
kellyjandrews collected 60 from pot
kellyjandrews: doesn't show hand 
*** SUMMARY ***
Total pot 60 | Rake 0 
Board [Kd 5s Kc Kh]
Seat 1: kellyjandrews (button) (small blind) collected (60)
Seat 2: airjordan106 (big blind) folded on the Turn



PokerStars Hand #188643257944: Tournament #2355158506, 8800+1200 Hold'em No Limit - Level II (15/30) - 2018/07/12 13:02:09 ET
Table '2355158506 1' 3-max Seat #2 is the button
Seat 1: kellyjandrews (1085 in chips) 
Seat 2: airjordan106 (415 in chips) 
airjordan106: posts small blind 15
kellyjandrews: posts big blind 30
*** HOLE CARDS ***
Dealt to kellyjandrews [Kc Qh]
airjordan106: calls 15
kellyjandrews: checks 
*** FLOP *** [2h 2s 8s]
kellyjandrews: checks 
airjordan106: checks 
*** TURN *** [2h 2s 8s] [7s]
kellyjandrews: checks 
airjordan106: checks 
*** RIVER *** [2h 2s 8s 7s] [Qc]
kellyjandrews: bets 30
airjordan106: calls 30
*** SHOW DOWN ***
kellyjandrews: shows [Kc Qh] (two pair, Queens and Deuces)
airjordan106: mucks hand 
kellyjandrews collected 120 from pot
*** SUMMARY ***
Total pot 120 | Rake 0 
Board [2h 2s 8s 7s Qc]
Seat 1: kellyjandrews (big blind) showed [Kc Qh] and won (120) with two pair, Queens and Deuces
Seat 2: airjordan106 (button) (small blind) mucked [Qd 9d]



PokerStars Hand #188643268719: Tournament #2355158506, 8800+1200 Hold'em No Limit - Level II (15/30) - 2018/07/12 13:02:28 ET
Table '2355158506 1' 3-max Seat #1 is the button
Seat 1: kellyjandrews (1145 in chips) 
Seat 2: airjordan106 (355 in chips) 
kellyjandrews: posts small blind 15
airjordan106: posts big blind 30
*** HOLE CARDS ***
Dealt to kellyjandrews [2d Qh]
kellyjandrews: folds 
Uncalled bet (15) returned to airjordan106
airjordan106 collected 30 from pot
airjordan106: doesn't show hand 
*** SUMMARY ***
Total pot 30 | Rake 0 
Seat 1: kellyjandrews (button) (small blind) folded before Flop
Seat 2: airjordan106 (big blind) collected (30)



PokerStars Hand #188643270961: Tournament #2355158506, 8800+1200 Hold'em No Limit - Level II (15/30) - 2018/07/12 13:02:32 ET
Table '2355158506 1' 3-max Seat #2 is the button
Seat 1: kellyjandrews (1130 in chips) 
Seat 2: airjordan106 (370 in chips) 
airjordan106: posts small blind 15
kellyjandrews: posts big blind 30
*** HOLE CARDS ***
Dealt to kellyjandrews [9c 9h]
airjordan106: calls 15
kellyjandrews: raises 60 to 90
airjordan106: calls 60
*** FLOP *** [Kd 2c 7c]
kellyjandrews: checks 
airjordan106: checks 
*** TURN *** [Kd 2c 7c] [Js]
kellyjandrews: bets 90
airjordan106: calls 90
*** RIVER *** [Kd 2c 7c Js] [Tc]
kellyjandrews: checks 
airjordan106: bets 190 and is all-in
kellyjandrews: folds 
Uncalled bet (190) returned to airjordan106
airjordan106 collected 360 from pot
airjordan106: doesn't show hand 
*** SUMMARY ***
Total pot 360 | Rake 0 
Board [Kd 2c 7c Js Tc]
Seat 1: kellyjandrews (big blind) folded on the River
Seat 2: airjordan106 (button) (small blind) collected (360)



PokerStars Hand #188643284977: Tournament #2355158506, 8800+1200 Hold'em No Limit - Level II (15/30) - 2018/07/12 13:02:56 ET
Table '2355158506 1' 3-max Seat #1 is the button
Seat 1: kellyjandrews (950 in chips) 
Seat 2: airjordan106 (550 in chips) 
kellyjandrews: posts small blind 15
airjordan106: posts big blind 30
*** HOLE CARDS ***
Dealt to kellyjandrews [Jd 2c]
kellyjandrews: folds 
Uncalled bet (15) returned to airjordan106
airjordan106 collected 30 from pot
airjordan106: doesn't show hand 
*** SUMMARY ***
Total pot 30 | Rake 0 
Seat 1: kellyjandrews (button) (small blind) folded before Flop
Seat 2: airjordan106 (big blind) collected (30)



PokerStars Hand #188643286872: Tournament #2355158506, 8800+1200 Hold'em No Limit - Level II (15/30) - 2018/07/12 13:02:59 ET
Table '2355158506 1' 3-max Seat #2 is the button
Seat 1: kellyjandrews (935 in chips) 
Seat 2: airjordan106 (565 in chips) 
airjordan106: posts small blind 15
kellyjandrews: posts big blind 30
*** HOLE CARDS ***
Dealt to kellyjandrews [Th 4c]
airjordan106: calls 15
kellyjandrews: checks 
*** FLOP *** [Ad 2d 3h]
kellyjandrews: checks 
airjordan106: checks 
*** TURN *** [Ad 2d 3h] [5s]
kellyjandrews: bets 30
airjordan106: calls 30
*** RIVER *** [Ad 2d 3h 5s] [9h]
kellyjandrews: bets 30
airjordan106: calls 30
*** SHOW DOWN ***
kellyjandrews: shows [Th 4c] (a straight, Ace to Five)
airjordan106: mucks hand 
kellyjandrews collected 180 from pot
*** SUMMARY ***
Total pot 180 | Rake 0 
Board [Ad 2d 3h 5s 9h]
Seat 1: kellyjandrews (big blind) showed [Th 4c] and won (180) with a straight, Ace to Five
Seat 2: airjordan106 (button) (small blind) mucked [Qd 9d]



PokerStars Hand #188643296733: Tournament #2355158506, 8800+1200 Hold'em No Limit - Level II (15/30) - 2018/07/12 13:03:16 ET
Table '2355158506 1' 3-max Seat #1 is the button
Seat 1: kellyjandrews (1025 in chips) 
Seat 2: airjordan106 (475 in chips) 
kellyjandrews: posts small blind 15
airjordan106: posts big blind 30
*** HOLE CARDS ***
Dealt to kellyjandrews [Td 9h]
kellyjandrews: folds 
Uncalled bet (15) returned to airjordan106
airjordan106 collected 30 from pot
airjordan106: doesn't show hand 
*** SUMMARY ***
Total pot 30 | Rake 0 
Seat 1: kellyjandrews (button) (small blind) folded before Flop
Seat 2: airjordan106 (big blind) collected (30)



PokerStars Hand #188643301024: Tournament #2355158506, 8800+1200 Hold'em No Limit - Level III (20/40) - 2018/07/12 13:03:23 ET
Table '2355158506 1' 3-max Seat #2 is the button
Seat 1: kellyjandrews (1010 in chips) 
Seat 2: airjordan106 (490 in chips) 
airjordan106: posts small blind 20
kellyjandrews: posts big blind 40
*** HOLE CARDS ***
Dealt to kellyjandrews [Js 5h]
airjordan106: calls 20
kellyjandrews: checks 
*** FLOP *** [Ad 8c Qd]
kellyjandrews: checks 
airjordan106: checks 
*** TURN *** [Ad 8c Qd] [5c]
kellyjandrews: bets 40
airjordan106: calls 40
*** RIVER *** [Ad 8c Qd 5c] [Jc]
kellyjandrews: checks 
airjordan106: checks 
*** SHOW DOWN ***
kellyjandrews: shows [Js 5h] (two pair, Jacks and Fives)
airjordan106: mucks hand 
kellyjandrews collected 160 from pot
*** SUMMARY ***
Total pot 160 | Rake 0 
Board [Ad 8c Qd 5c Jc]
Seat 1: kellyjandrews (big blind) showed [Js 5h] and won (160) with two pair, Jacks and Fives
Seat 2: airjordan106 (button) (small blind) mucked [8d 7s]



PokerStars Hand #188643310243: Tournament #2355158506, 8800+1200 Hold'em No Limit - Level III (20/40) - 2018/07/12 13:03:39 ET
Table '2355158506 1' 3-max Seat #1 is the button
Seat 1: kellyjandrews (1090 in chips) 
Seat 2: airjordan106 (410 in chips) 
kellyjandrews: posts small blind 20
airjordan106: posts big blind 40
*** HOLE CARDS ***
Dealt to kellyjandrews [9d 3s]
kellyjandrews: folds 
Uncalled bet (20) returned to airjordan106
airjordan106 collected 40 from pot
airjordan106: doesn't show hand 
*** SUMMARY ***
Total pot 40 | Rake 0 
Seat 1: kellyjandrews (button) (small blind) folded before Flop
Seat 2: airjordan106 (big blind) collected (40)



PokerStars Hand #188643312471: Tournament #2355158506, 8800+1200 Hold'em No Limit - Level III (20/40) - 2018/07/12 13:03:42 ET
Table '2355158506 1' 3-max Seat #2 is the button
Seat 1: kellyjandrews (1070 in chips) 
Seat 2: airjordan106 (430 in chips) 
airjordan106: posts small blind 20
kellyjandrews: posts big blind 40
*** HOLE CARDS ***
Dealt to kellyjandrews [8c Jh]
airjordan106: folds 
Uncalled bet (20) returned to kellyjandrews
kellyjandrews collected 40 from pot
kellyjandrews: doesn't show hand 
*** SUMMARY ***
Total pot 40 | Rake 0 
Seat 1: kellyjandrews (big blind) collected (40)
Seat 2: airjordan106 (button) (small blind) folded before Flop



PokerStars Hand #188643315516: Tournament #2355158506, 8800+1200 Hold'em No Limit - Level III (20/40) - 2018/07/12 13:03:47 ET
Table '2355158506 1' 3-max Seat #1 is the button
Seat 1: kellyjandrews (1090 in chips) 
Seat 2: airjordan106 (410 in chips) 
kellyjandrews: posts small blind 20
airjordan106: posts big blind 40
*** HOLE CARDS ***
Dealt to kellyjandrews [3c 8s]
kellyjandrews: folds 
Uncalled bet (20) returned to airjordan106
airjordan106 collected 40 from pot
airjordan106: doesn't show hand 
*** SUMMARY ***
Total pot 40 | Rake 0 
Seat 1: kellyjandrews (button) (small blind) folded before Flop
Seat 2: airjordan106 (big blind) collected (40)



PokerStars Hand #188643317435: Tournament #2355158506, 8800+1200 Hold'em No Limit - Level III (20/40) - 2018/07/12 13:03:51 ET
Table '2355158506 1' 3-max Seat #2 is the button
Seat 1: kellyjandrews (1070 in chips) 
Seat 2: airjordan106 (430 in chips) 
airjordan106: posts small blind 20
kellyjandrews: posts big blind 40
*** HOLE CARDS ***
Dealt to kellyjandrews [Kh 2c]
airjordan106: calls 20
kellyjandrews: checks 
*** FLOP *** [3d 8d Ad]
kellyjandrews: checks 
airjordan106: checks 
*** TURN *** [3d 8d Ad] [7c]
kellyjandrews: checks 
airjordan106: bets 40
kellyjandrews: folds 
Uncalled bet (40) returned to airjordan106
airjordan106 collected 80 from pot
airjordan106: doesn't show hand 
*** SUMMARY ***
Total pot 80 | Rake 0 
Board [3d 8d Ad 7c]
Seat 1: kellyjandrews (big blind) folded on the Turn
Seat 2: airjordan106 (button) (small blind) collected (80)



PokerStars Hand #188643325849: Tournament #2355158506, 8800+1200 Hold'em No Limit - Level III (20/40) - 2018/07/12 13:04:05 ET
Table '2355158506 1' 3-max Seat #1 is the button
Seat 1: kellyjandrews (1030 in chips) 
Seat 2: airjordan106 (470 in chips) 
kellyjandrews: posts small blind 20
airjordan106: posts big blind 40
*** HOLE CARDS ***
Dealt to kellyjandrews [4d 8h]
kellyjandrews: folds 
Uncalled bet (20) returned to airjordan106
airjordan106 collected 40 from pot
airjordan106: doesn't show hand 
*** SUMMARY ***
Total pot 40 | Rake 0 
Seat 1: kellyjandrews (button) (small blind) folded before Flop
Seat 2: airjordan106 (big blind) collected (40)



PokerStars Hand #188643328012: Tournament #2355158506, 8800+1200 Hold'em No Limit - Level III (20/40) - 2018/07/12 13:04:09 ET
Table '2355158506 1' 3-max Seat #2 is the button
Seat 1: kellyjandrews (1010 in chips) 
Seat 2: airjordan106 (490 in chips) 
airjordan106: posts small blind 20
kellyjandrews: posts big blind 40
*** HOLE CARDS ***
Dealt to kellyjandrews [Js 6d]
airjordan106: calls 20
kellyjandrews: checks 
*** FLOP *** [Qh Qs 2h]
kellyjandrews: checks 
airjordan106: bets 40
kellyjandrews: folds 
Uncalled bet (40) returned to airjordan106
airjordan106 collected 80 from pot
airjordan106: doesn't show hand 
*** SUMMARY ***
Total pot 80 | Rake 0 
Board [Qh Qs 2h]
Seat 1: kellyjandrews (big blind) folded on the Flop
Seat 2: airjordan106 (button) (small blind) collected (80)



PokerStars Hand #188643336830: Tournament #2355158506, 8800+1200 Hold'em No Limit - Level III (20/40) - 2018/07/12 13:04:24 ET
Table '2355158506 1' 3-max Seat #1 is the button
Seat 1: kellyjandrews (970 in chips) 
Seat 2: airjordan106 (530 in chips) 
kellyjandrews: posts small blind 20
airjordan106: posts big blind 40
*** HOLE CARDS ***
Dealt to kellyjandrews [3d 5s]
kellyjandrews: folds 
Uncalled bet (20) returned to airjordan106
airjordan106 collected 40 from pot
airjordan106: doesn't show hand 
*** SUMMARY ***
Total pot 40 | Rake 0 
Seat 1: kellyjandrews (button) (small blind) folded before Flop
Seat 2: airjordan106 (big blind) collected (40)



PokerStars Hand #188643339090: Tournament #2355158506, 8800+1200 Hold'em No Limit - Level III (20/40) - 2018/07/12 13:04:28 ET
Table '2355158506 1' 3-max Seat #2 is the button
Seat 1: kellyjandrews (950 in chips) 
Seat 2: airjordan106 (550 in chips) 
airjordan106: posts small blind 20
kellyjandrews: posts big blind 40
*** HOLE CARDS ***
Dealt to kellyjandrews [Kc 2c]
airjordan106: calls 20
kellyjandrews: checks 
*** FLOP *** [Kd 4h Th]
kellyjandrews: bets 40
airjordan106: folds 
Uncalled bet (40) returned to kellyjandrews
kellyjandrews collected 80 from pot
kellyjandrews: doesn't show hand 
*** SUMMARY ***
Total pot 80 | Rake 0 
Board [Kd 4h Th]
Seat 1: kellyjandrews (big blind) collected (80)
Seat 2: airjordan106 (button) (small blind) folded on the Flop



PokerStars Hand #188643346401: Tournament #2355158506, 8800+1200 Hold'em No Limit - Level III (20/40) - 2018/07/12 13:04:40 ET
Table '2355158506 1' 3-max Seat #1 is the button
Seat 1: kellyjandrews (990 in chips) 
Seat 2: airjordan106 (510 in chips) 
kellyjandrews: posts small blind 20
airjordan106: posts big blind 40
*** HOLE CARDS ***
Dealt to kellyjandrews [9s Th]
kellyjandrews: calls 20
airjordan106: checks 
*** FLOP *** [As 8h 8c]
airjordan106: checks 
kellyjandrews: checks 
*** TURN *** [As 8h 8c] [Td]
airjordan106: checks 
kellyjandrews: bets 40
airjordan106: calls 40
*** RIVER *** [As 8h 8c Td] [Qs]
airjordan106: checks 
kellyjandrews: checks 
*** SHOW DOWN ***
airjordan106: shows [Jh Qc] (two pair, Queens and Eights)
kellyjandrews: mucks hand 
airjordan106 collected 160 from pot
*** SUMMARY ***
Total pot 160 | Rake 0 
Board [As 8h 8c Td Qs]
Seat 1: kellyjandrews (button) (small blind) mucked [9s Th]
Seat 2: airjordan106 (big blind) showed [Jh Qc] and won (160) with two pair, Queens and Eights



PokerStars Hand #188643359988: Tournament #2355158506, 8800+1200 Hold'em No Limit - Level III (20/40) - 2018/07/12 13:05:03 ET
Table '2355158506 1' 3-max Seat #2 is the button
Seat 1: kellyjandrews (910 in chips) 
Seat 2: airjordan106 (590 in chips) 
airjordan106: posts small blind 20
kellyjandrews: posts big blind 40
*** HOLE CARDS ***
Dealt to kellyjandrews [9c Th]
airjordan106: calls 20
kellyjandrews: checks 
*** FLOP *** [7d Qh 2d]
kellyjandrews: checks 
airjordan106: checks 
*** TURN *** [7d Qh 2d] [6c]
kellyjandrews: checks 
airjordan106: bets 80
kellyjandrews: folds 
Uncalled bet (80) returned to airjordan106
airjordan106 collected 80 from pot
airjordan106: doesn't show hand 
*** SUMMARY ***
Total pot 80 | Rake 0 
Board [7d Qh 2d 6c]
Seat 1: kellyjandrews (big blind) folded on the Turn
Seat 2: airjordan106 (button) (small blind) collected (80)



PokerStars Hand #188643368658: Tournament #2355158506, 8800+1200 Hold'em No Limit - Level III (20/40) - 2018/07/12 13:05:18 ET
Table '2355158506 1' 3-max Seat #1 is the button
Seat 1: kellyjandrews (870 in chips) 
Seat 2: airjordan106 (630 in chips) 
kellyjandrews: posts small blind 20
airjordan106: posts big blind 40
*** HOLE CARDS ***
Dealt to kellyjandrews [Ks 9s]
kellyjandrews: raises 40 to 80
airjordan106: calls 40
*** FLOP *** [5c 8c 3c]
airjordan106: checks 
kellyjandrews: checks 
*** TURN *** [5c 8c 3c] [6d]
airjordan106: checks 
kellyjandrews: checks 
*** RIVER *** [5c 8c 3c 6d] [Qs]
airjordan106: checks 
kellyjandrews: bets 40
airjordan106: calls 40
*** SHOW DOWN ***
kellyjandrews: shows [Ks 9s] (high card King)
airjordan106: shows [Jh Ac] (high card Ace)
airjordan106 collected 240 from pot
*** SUMMARY ***
Total pot 240 | Rake 0 
Board [5c 8c 3c 6d Qs]
Seat 1: kellyjandrews (button) (small blind) showed [Ks 9s] and lost with high card King
Seat 2: airjordan106 (big blind) showed [Jh Ac] and won (240) with high card Ace



PokerStars Hand #188643379675: Tournament #2355158506, 8800+1200 Hold'em No Limit - Level III (20/40) - 2018/07/12 13:05:36 ET
Table '2355158506 1' 3-max Seat #2 is the button
Seat 1: kellyjandrews (750 in chips) 
Seat 2: airjordan106 (750 in chips) 
airjordan106: posts small blind 20
kellyjandrews: posts big blind 40
*** HOLE CARDS ***
Dealt to kellyjandrews [5d Kc]
airjordan106: calls 20
kellyjandrews: checks 
*** FLOP *** [8s Kh Ac]
kellyjandrews: checks 
airjordan106: checks 
*** TURN *** [8s Kh Ac] [As]
kellyjandrews: bets 40
airjordan106: folds 
Uncalled bet (40) returned to kellyjandrews
kellyjandrews collected 80 from pot
kellyjandrews: doesn't show hand 
*** SUMMARY ***
Total pot 80 | Rake 0 
Board [8s Kh Ac As]
Seat 1: kellyjandrews (big blind) collected (80)
Seat 2: airjordan106 (button) (small blind) folded on the Turn



PokerStars Hand #188643388451: Tournament #2355158506, 8800+1200 Hold'em No Limit - Level III (20/40) - 2018/07/12 13:05:51 ET
Table '2355158506 1' 3-max Seat #1 is the button
Seat 1: kellyjandrews (790 in chips) 
Seat 2: airjordan106 (710 in chips) 
kellyjandrews: posts small blind 20
airjordan106: posts big blind 40
*** HOLE CARDS ***
Dealt to kellyjandrews [7h 8d]
kellyjandrews: calls 20
airjordan106: checks 
*** FLOP *** [2d 2h 9c]
airjordan106: checks 
kellyjandrews: checks 
*** TURN *** [2d 2h 9c] [4c]
airjordan106: checks 
kellyjandrews: checks 
*** RIVER *** [2d 2h 9c 4c] [Kh]
airjordan106: checks 
kellyjandrews: checks 
*** SHOW DOWN ***
airjordan106: shows [Tc Jd] (a pair of Deuces)
kellyjandrews: mucks hand 
airjordan106 collected 80 from pot
*** SUMMARY ***
Total pot 80 | Rake 0 
Board [2d 2h 9c 4c Kh]
Seat 1: kellyjandrews (button) (small blind) mucked [7h 8d]
Seat 2: airjordan106 (big blind) showed [Tc Jd] and won (80) with a pair of Deuces



PokerStars Hand #188643402125: Tournament #2355158506, 8800+1200 Hold'em No Limit - Level III (20/40) - 2018/07/12 13:06:14 ET
Table '2355158506 1' 3-max Seat #2 is the button
Seat 1: kellyjandrews (750 in chips) 
Seat 2: airjordan106 (750 in chips) 
airjordan106: posts small blind 20
kellyjandrews: posts big blind 40
*** HOLE CARDS ***
Dealt to kellyjandrews [Kc Td]
airjordan106: calls 20
kellyjandrews: checks 
*** FLOP *** [4h Jd 8h]
kellyjandrews: checks 
airjordan106: bets 40
kellyjandrews: folds 
Uncalled bet (40) returned to airjordan106
airjordan106 collected 80 from pot
airjordan106: doesn't show hand 
*** SUMMARY ***
Total pot 80 | Rake 0 
Board [4h Jd 8h]
Seat 1: kellyjandrews (big blind) folded on the Flop
Seat 2: airjordan106 (button) (small blind) collected (80)



PokerStars Hand #188643410599: Tournament #2355158506, 8800+1200 Hold'em No Limit - Level IV (30/60) - 2018/07/12 13:06:28 ET
Table '2355158506 1' 3-max Seat #1 is the button
Seat 1: kellyjandrews (710 in chips) 
Seat 2: airjordan106 (790 in chips) 
kellyjandrews: posts small blind 30
airjordan106: posts big blind 60
*** HOLE CARDS ***
Dealt to kellyjandrews [9s Qs]
kellyjandrews: calls 30
airjordan106: checks 
*** FLOP *** [5d Kc 2h]
airjordan106: checks 
kellyjandrews: checks 
*** TURN *** [5d Kc 2h] [6h]
airjordan106: checks 
kellyjandrews: checks 
*** RIVER *** [5d Kc 2h 6h] [Js]
airjordan106: bets 120
kellyjandrews: folds 
Uncalled bet (120) returned to airjordan106
airjordan106 collected 120 from pot
airjordan106: doesn't show hand 
*** SUMMARY ***
Total pot 120 | Rake 0 
Board [5d Kc 2h 6h Js]
Seat 1: kellyjandrews (button) (small blind) folded on the River
Seat 2: airjordan106 (big blind) collected (120)



PokerStars Hand #188643424689: Tournament #2355158506, 8800+1200 Hold'em No Limit - Level IV (30/60) - 2018/07/12 13:06:52 ET
Table '2355158506 1' 3-max Seat #2 is the button
Seat 1: kellyjandrews (650 in chips) 
Seat 2: airjordan106 (850 in chips) 
airjordan106: posts small blind 30
kellyjandrews: posts big blind 60
*** HOLE CARDS ***
Dealt to kellyjandrews [3c Ts]
airjordan106: calls 30
kellyjandrews: checks 
*** FLOP *** [7h 6c 7s]
kellyjandrews: checks 
airjordan106: checks 
*** TURN *** [7h 6c 7s] [3h]
kellyjandrews: bets 60
airjordan106: folds 
Uncalled bet (60) returned to kellyjandrews
kellyjandrews collected 120 from pot
kellyjandrews: doesn't show hand 
*** SUMMARY ***
Total pot 120 | Rake 0 
Board [7h 6c 7s 3h]
Seat 1: kellyjandrews (big blind) collected (120)
Seat 2: airjordan106 (button) (small blind) folded on the Turn



PokerStars Hand #188643433498: Tournament #2355158506, 8800+1200 Hold'em No Limit - Level IV (30/60) - 2018/07/12 13:07:06 ET
Table '2355158506 1' 3-max Seat #1 is the button
Seat 1: kellyjandrews (710 in chips) 
Seat 2: airjordan106 (790 in chips) 
kellyjandrews: posts small blind 30
airjordan106: posts big blind 60
*** HOLE CARDS ***
Dealt to kellyjandrews [9h 3c]
kellyjandrews: folds 
Uncalled bet (30) returned to airjordan106
airjordan106 collected 60 from pot
airjordan106: doesn't show hand 
*** SUMMARY ***
Total pot 60 | Rake 0 
Seat 1: kellyjandrews (button) (small blind) folded before Flop
Seat 2: airjordan106 (big blind) collected (60)



PokerStars Hand #188643435975: Tournament #2355158506, 8800+1200 Hold'em No Limit - Level IV (30/60) - 2018/07/12 13:07:10 ET
Table '2355158506 1' 3-max Seat #2 is the button
Seat 1: kellyjandrews (680 in chips) 
Seat 2: airjordan106 (820 in chips) 
airjordan106: posts small blind 30
kellyjandrews: posts big blind 60
*** HOLE CARDS ***
Dealt to kellyjandrews [5h 6h]
airjordan106: calls 30
kellyjandrews: checks 
*** FLOP *** [9c 9h 8s]
kellyjandrews: checks 
airjordan106: bets 60
kellyjandrews: folds 
Uncalled bet (60) returned to airjordan106
airjordan106 collected 120 from pot
airjordan106: doesn't show hand 
*** SUMMARY ***
Total pot 120 | Rake 0 
Board [9c 9h 8s]
Seat 1: kellyjandrews (big blind) folded on the Flop
Seat 2: airjordan106 (button) (small blind) collected (120)



PokerStars Hand #188643442573: Tournament #2355158506, 8800+1200 Hold'em No Limit - Level IV (30/60) - 2018/07/12 13:07:21 ET
Table '2355158506 1' 3-max Seat #1 is the button
Seat 1: kellyjandrews (620 in chips) 
Seat 2: airjordan106 (880 in chips) 
kellyjandrews: posts small blind 30
airjordan106: posts big blind 60
*** HOLE CARDS ***
Dealt to kellyjandrews [Ac 9s]
kellyjandrews: raises 60 to 120
airjordan106: calls 60
*** FLOP *** [Ad Kd 4s]
airjordan106: checks 
kellyjandrews: bets 120
airjordan106: calls 120
*** TURN *** [Ad Kd 4s] [5c]
airjordan106: checks 
kellyjandrews: bets 380 and is all-in
airjordan106: calls 380
*** RIVER *** [Ad Kd 4s 5c] [3s]
*** SHOW DOWN ***
airjordan106: shows [Qd Qc] (a pair of Queens)
kellyjandrews: shows [Ac 9s] (a pair of Aces)
kellyjandrews collected 1240 from pot
*** SUMMARY ***
Total pot 1240 | Rake 0 
Board [Ad Kd 4s 5c 3s]
Seat 1: kellyjandrews (button) (small blind) showed [Ac 9s] and won (1240) with a pair of Aces
Seat 2: airjordan106 (big blind) showed [Qd Qc] and lost with a pair of Queens



PokerStars Hand #188643459515: Tournament #2355158506, 8800+1200 Hold'em No Limit - Level IV (30/60) - 2018/07/12 13:07:49 ET
Table '2355158506 1' 3-max Seat #2 is the button
Seat 1: kellyjandrews (1240 in chips) 
Seat 2: airjordan106 (260 in chips) 
airjordan106: posts small blind 30
kellyjandrews: posts big blind 60
*** HOLE CARDS ***
Dealt to kellyjandrews [Js Ts]
airjordan106: calls 30
kellyjandrews: checks 
*** FLOP *** [Qc Kd Qs]
kellyjandrews: bets 60
airjordan106: folds 
Uncalled bet (60) returned to kellyjandrews
kellyjandrews collected 120 from pot
kellyjandrews: doesn't show hand 
*** SUMMARY ***
Total pot 120 | Rake 0 
Board [Qc Kd Qs]
Seat 1: kellyjandrews (big blind) collected (120)
Seat 2: airjordan106 (button) (small blind) folded on the Flop



PokerStars Hand #188643467316: Tournament #2355158506, 8800+1200 Hold'em No Limit - Level IV (30/60) - 2018/07/12 13:08:02 ET
Table '2355158506 1' 3-max Seat #1 is the button
Seat 1: kellyjandrews (1300 in chips) 
Seat 2: airjordan106 (200 in chips) 
kellyjandrews: posts small blind 30
airjordan106: posts big blind 60
*** HOLE CARDS ***
Dealt to kellyjandrews [7h Ah]
kellyjandrews: raises 60 to 120
airjordan106: folds 
Uncalled bet (60) returned to kellyjandrews
kellyjandrews collected 120 from pot
kellyjandrews: doesn't show hand 
*** SUMMARY ***
Total pot 120 | Rake 0 
Seat 1: kellyjandrews (button) (small blind) collected (120)
Seat 2: airjordan106 (big blind) folded before Flop



PokerStars Hand #188643471562: Tournament #2355158506, 8800+1200 Hold'em No Limit - Level IV (30/60) - 2018/07/12 13:08:09 ET
Table '2355158506 1' 3-max Seat #2 is the button
Seat 1: kellyjandrews (1360 in chips) 
Seat 2: airjordan106 (140 in chips) 
airjordan106: posts small blind 30
kellyjandrews: posts big blind 60
*** HOLE CARDS ***
Dealt to kellyjandrews [Ac 9d]
airjordan106: calls 30
kellyjandrews: raises 60 to 120
airjordan106: raises 20 to 140 and is all-in
kellyjandrews: calls 20
*** FLOP *** [3c Ad 2d]
*** TURN *** [3c Ad 2d] [Ts]
*** RIVER *** [3c Ad 2d Ts] [3h]
*** SHOW DOWN ***
kellyjandrews: shows [Ac 9d] (two pair, Aces and Threes)
airjordan106: shows [6s As] (two pair, Aces and Threes)
kellyjandrews collected 140 from pot
airjordan106 collected 140 from pot
*** SUMMARY ***
Total pot 280 | Rake 0 
Board [3c Ad 2d Ts 3h]
Seat 1: kellyjandrews (big blind) showed [Ac 9d] and won (140) with two pair, Aces and Threes
Seat 2: airjordan106 (button) (small blind) showed [6s As] and won (140) with two pair, Aces and Threes



PokerStars Hand #188643481777: Tournament #2355158506, 8800+1200 Hold'em No Limit - Level IV (30/60) - 2018/07/12 13:08:26 ET
Table '2355158506 1' 3-max Seat #1 is the button
Seat 1: kellyjandrews (1360 in chips) 
Seat 2: airjordan106 (140 in chips) 
kellyjandrews: posts small blind 30
airjordan106: posts big blind 60
*** HOLE CARDS ***
Dealt to kellyjandrews [4c 6h]
kellyjandrews: folds 
Uncalled bet (30) returned to airjordan106
airjordan106 collected 60 from pot
airjordan106: doesn't show hand 
*** SUMMARY ***
Total pot 60 | Rake 0 
Seat 1: kellyjandrews (button) (small blind) folded before Flop
Seat 2: airjordan106 (big blind) collected (60)



PokerStars Hand #188643485078: Tournament #2355158506, 8800+1200 Hold'em No Limit - Level IV (30/60) - 2018/07/12 13:08:32 ET
Table '2355158506 1' 3-max Seat #2 is the button
Seat 1: kellyjandrews (1330 in chips) 
Seat 2: airjordan106 (170 in chips) 
airjordan106: posts small blind 30
kellyjandrews: posts big blind 60
*** HOLE CARDS ***
Dealt to kellyjandrews [4c 9h]
airjordan106: raises 110 to 170 and is all-in
kellyjandrews: folds 
Uncalled bet (110) returned to airjordan106
airjordan106 collected 120 from pot
airjordan106: doesn't show hand 
*** SUMMARY ***
Total pot 120 | Rake 0 
Seat 1: kellyjandrews (big blind) folded before Flop
Seat 2: airjordan106 (button) (small blind) collected (120)



PokerStars Hand #188643488771: Tournament #2355158506, 8800+1200 Hold'em No Limit - Level IV (30/60) - 2018/07/12 13:08:38 ET
Table '2355158506 1' 3-max Seat #1 is the button
Seat 1: kellyjandrews (1270 in chips) 
Seat 2: airjordan106 (230 in chips) 
kellyjandrews: posts small blind 30
airjordan106: posts big blind 60
*** HOLE CARDS ***
Dealt to kellyjandrews [8s Jd]
kellyjandrews: folds 
Uncalled bet (30) returned to airjordan106
airjordan106 collected 60 from pot
airjordan106: doesn't show hand 
*** SUMMARY ***
Total pot 60 | Rake 0 
Seat 1: kellyjandrews (button) (small blind) folded before Flop
Seat 2: airjordan106 (big blind) collected (60)



PokerStars Hand #188643491390: Tournament #2355158506, 8800+1200 Hold'em No Limit - Level IV (30/60) - 2018/07/12 13:08:42 ET
Table '2355158506 1' 3-max Seat #2 is the button
Seat 1: kellyjandrews (1240 in chips) 
Seat 2: airjordan106 (260 in chips) 
airjordan106: posts small blind 30
kellyjandrews: posts big blind 60
*** HOLE CARDS ***
Dealt to kellyjandrews [3h 7h]
airjordan106: calls 30
kellyjandrews: checks 
*** FLOP *** [Tc 3d 8c]
kellyjandrews: checks 
airjordan106: bets 120
kellyjandrews: folds 
Uncalled bet (120) returned to airjordan106
airjordan106 collected 120 from pot
airjordan106: doesn't show hand 
*** SUMMARY ***
Total pot 120 | Rake 0 
Board [Tc 3d 8c]
Seat 1: kellyjandrews (big blind) folded on the Flop
Seat 2: airjordan106 (button) (small blind) collected (120)



PokerStars Hand #188643500066: Tournament #2355158506, 8800+1200 Hold'em No Limit - Level IV (30/60) - 2018/07/12 13:08:57 ET
Table '2355158506 1' 3-max Seat #1 is the button
Seat 1: kellyjandrews (1180 in chips) 
Seat 2: airjordan106 (320 in chips) 
kellyjandrews: posts small blind 30
airjordan106: posts big blind 60
*** HOLE CARDS ***
Dealt to kellyjandrews [4s 6d]
kellyjandrews: folds 
Uncalled bet (30) returned to airjordan106
airjordan106 collected 60 from pot
airjordan106: doesn't show hand 
*** SUMMARY ***
Total pot 60 | Rake 0 
Seat 1: kellyjandrews (button) (small blind) folded before Flop
Seat 2: airjordan106 (big blind) collected (60)



PokerStars Hand #188643502232: Tournament #2355158506, 8800+1200 Hold'em No Limit - Level IV (30/60) - 2018/07/12 13:09:00 ET
Table '2355158506 1' 3-max Seat #2 is the button
Seat 1: kellyjandrews (1150 in chips) 
Seat 2: airjordan106 (350 in chips) 
airjordan106: posts small blind 30
kellyjandrews: posts big blind 60
*** HOLE CARDS ***
Dealt to kellyjandrews [5s Tc]
airjordan106: calls 30
kellyjandrews: checks 
*** FLOP *** [5d 8s Qs]
kellyjandrews: bets 60
airjordan106: calls 60
*** TURN *** [5d 8s Qs] [3c]
kellyjandrews: bets 60
airjordan106: calls 60
*** RIVER *** [5d 8s Qs 3c] [7s]
kellyjandrews: bets 60
airjordan106: raises 110 to 170 and is all-in
kellyjandrews: folds 
Uncalled bet (110) returned to airjordan106
airjordan106 collected 480 from pot
airjordan106: doesn't show hand 
*** SUMMARY ***
Total pot 480 | Rake 0 
Board [5d 8s Qs 3c 7s]
Seat 1: kellyjandrews (big blind) folded on the River
Seat 2: airjordan106 (button) (small blind) collected (480)



PokerStars Hand #188643519997: Tournament #2355158506, 8800+1200 Hold'em No Limit - Level V (40/80) - 2018/07/12 13:09:30 ET
Table '2355158506 1' 3-max Seat #1 is the button
Seat 1: kellyjandrews (910 in chips) 
Seat 2: airjordan106 (590 in chips) 
kellyjandrews: posts small blind 40
airjordan106: posts big blind 80
*** HOLE CARDS ***
Dealt to kellyjandrews [8d 3s]
kellyjandrews: folds 
Uncalled bet (40) returned to airjordan106
airjordan106 collected 80 from pot
airjordan106: doesn't show hand 
*** SUMMARY ***
Total pot 80 | Rake 0 
Seat 1: kellyjandrews (button) (small blind) folded before Flop
Seat 2: airjordan106 (big blind) collected (80)



PokerStars Hand #188643523237: Tournament #2355158506, 8800+1200 Hold'em No Limit - Level V (40/80) - 2018/07/12 13:09:35 ET
Table '2355158506 1' 3-max Seat #2 is the button
Seat 1: kellyjandrews (870 in chips) 
Seat 2: airjordan106 (630 in chips) 
airjordan106: posts small blind 40
kellyjandrews: posts big blind 80
*** HOLE CARDS ***
Dealt to kellyjandrews [8c Ks]
airjordan106: calls 40
kellyjandrews: checks 
*** FLOP *** [5h 7c 8h]
kellyjandrews: checks 
airjordan106: bets 80
kellyjandrews: raises 320 to 400
airjordan106: calls 320
*** TURN *** [5h 7c 8h] [Ad]
kellyjandrews: checks 
airjordan106: bets 150 and is all-in
kellyjandrews: calls 150
*** RIVER *** [5h 7c 8h Ad] [9s]
*** SHOW DOWN ***
kellyjandrews: shows [8c Ks] (a pair of Eights)
airjordan106: shows [2d 6h] (a straight, Five to Nine)
airjordan106 collected 1260 from pot
*** SUMMARY ***
Total pot 1260 | Rake 0 
Board [5h 7c 8h Ad 9s]
Seat 1: kellyjandrews (big blind) showed [8c Ks] and lost with a pair of Eights
Seat 2: airjordan106 (button) (small blind) showed [2d 6h] and won (1260) with a straight, Five to Nine



PokerStars Hand #188643545466: Tournament #2355158506, 8800+1200 Hold'em No Limit - Level V (40/80) - 2018/07/12 13:10:12 ET
Table '2355158506 1' 3-max Seat #1 is the button
Seat 1: kellyjandrews (240 in chips) 
Seat 2: airjordan106 (1260 in chips) 
kellyjandrews: posts small blind 40
airjordan106: posts big blind 80
*** HOLE CARDS ***
Dealt to kellyjandrews [Kc Qd]
kellyjandrews: raises 160 to 240 and is all-in
airjordan106: calls 160
*** FLOP *** [7s 2h 2s]
*** TURN *** [7s 2h 2s] [Kh]
*** RIVER *** [7s 2h 2s Kh] [6h]
*** SHOW DOWN ***
airjordan106: shows [Td 8c] (a pair of Deuces)
kellyjandrews: shows [Kc Qd] (two pair, Kings and Deuces)
kellyjandrews collected 480 from pot
*** SUMMARY ***
Total pot 480 | Rake 0 
Board [7s 2h 2s Kh 6h]
Seat 1: kellyjandrews (button) (small blind) showed [Kc Qd] and won (480) with two pair, Kings and Deuces
Seat 2: airjordan106 (big blind) showed [Td 8c] and lost with a pair of Deuces



PokerStars Hand #188643555055: Tournament #2355158506, 8800+1200 Hold'em No Limit - Level V (40/80) - 2018/07/12 13:10:28 ET
Table '2355158506 1' 3-max Seat #2 is the button
Seat 1: kellyjandrews (480 in chips) 
Seat 2: airjordan106 (1020 in chips) 
airjordan106: posts small blind 40
kellyjandrews: posts big blind 80
*** HOLE CARDS ***
Dealt to kellyjandrews [Qd 9s]
airjordan106: calls 40
kellyjandrews: checks 
*** FLOP *** [4c Jh 3s]
kellyjandrews: checks 
airjordan106: bets 80
kellyjandrews: folds 
Uncalled bet (80) returned to airjordan106
airjordan106 collected 160 from pot
airjordan106: doesn't show hand 
*** SUMMARY ***
Total pot 160 | Rake 0 
Board [4c Jh 3s]
Seat 1: kellyjandrews (big blind) folded on the Flop
Seat 2: airjordan106 (button) (small blind) collected (160)



PokerStars Hand #188643562432: Tournament #2355158506, 8800+1200 Hold'em No Limit - Level V (40/80) - 2018/07/12 13:10:40 ET
Table '2355158506 1' 3-max Seat #1 is the button
Seat 1: kellyjandrews (400 in chips) 
Seat 2: airjordan106 (1100 in chips) 
kellyjandrews: posts small blind 40
airjordan106: posts big blind 80
*** HOLE CARDS ***
Dealt to kellyjandrews [4d 4h]
kellyjandrews: raises 320 to 400 and is all-in
airjordan106: folds 
Uncalled bet (320) returned to kellyjandrews
kellyjandrews collected 160 from pot
kellyjandrews: doesn't show hand 
*** SUMMARY ***
Total pot 160 | Rake 0 
Seat 1: kellyjandrews (button) (small blind) collected (160)
Seat 2: airjordan106 (big blind) folded before Flop



PokerStars Hand #188643567167: Tournament #2355158506, 8800+1200 Hold'em No Limit - Level V (40/80) - 2018/07/12 13:10:48 ET
Table '2355158506 1' 3-max Seat #2 is the button
Seat 1: kellyjandrews (480 in chips) 
Seat 2: airjordan106 (1020 in chips) 
airjordan106: posts small blind 40
kellyjandrews: posts big blind 80
*** HOLE CARDS ***
Dealt to kellyjandrews [4c 6d]
airjordan106: calls 40
kellyjandrews: checks 
*** FLOP *** [9h 2d 3h]
kellyjandrews: checks 
airjordan106: checks 
*** TURN *** [9h 2d 3h] [3s]
kellyjandrews: checks 
airjordan106: checks 
*** RIVER *** [9h 2d 3h 3s] [8s]
kellyjandrews: checks 
airjordan106: checks 
*** SHOW DOWN ***
kellyjandrews: shows [4c 6d] (a pair of Threes)
airjordan106: shows [5h 6c] (a pair of Threes)
kellyjandrews collected 80 from pot
airjordan106 collected 80 from pot
*** SUMMARY ***
Total pot 160 | Rake 0 
Board [9h 2d 3h 3s 8s]
Seat 1: kellyjandrews (big blind) showed [4c 6d] and won (80) with a pair of Threes
Seat 2: airjordan106 (button) (small blind) showed [5h 6c] and won (80) with a pair of Threes



PokerStars Hand #188643587482: Tournament #2355158506, 8800+1200 Hold'em No Limit - Level V (40/80) - 2018/07/12 13:11:06 ET
Table '2355158506 1' 3-max Seat #1 is the button
Seat 1: kellyjandrews (480 in chips) 
Seat 2: airjordan106 (1020 in chips) 
kellyjandrews: posts small blind 40
airjordan106: posts big blind 80
*** HOLE CARDS ***
Dealt to kellyjandrews [2c 6c]
kellyjandrews: folds 
Uncalled bet (40) returned to airjordan106
airjordan106 collected 80 from pot
airjordan106: doesn't show hand 
*** SUMMARY ***
Total pot 80 | Rake 0 
Seat 1: kellyjandrews (button) (small blind) folded before Flop
Seat 2: airjordan106 (big blind) collected (80)



PokerStars Hand #188643590737: Tournament #2355158506, 8800+1200 Hold'em No Limit - Level V (40/80) - 2018/07/12 13:11:12 ET
Table '2355158506 1' 3-max Seat #2 is the button
Seat 1: kellyjandrews (440 in chips) 
Seat 2: airjordan106 (1060 in chips) 
airjordan106: posts small blind 40
kellyjandrews: posts big blind 80
*** HOLE CARDS ***
Dealt to kellyjandrews [7c Kd]
airjordan106: calls 40
kellyjandrews: checks 
*** FLOP *** [2s 8c 4s]
kellyjandrews: checks 
airjordan106: checks 
*** TURN *** [2s 8c 4s] [Ts]
kellyjandrews: checks 
airjordan106: checks 
*** RIVER *** [2s 8c 4s Ts] [Td]
kellyjandrews: bets 80
airjordan106: calls 80
*** SHOW DOWN ***
kellyjandrews: shows [7c Kd] (a pair of Tens)
airjordan106: mucks hand 
kellyjandrews collected 320 from pot
*** SUMMARY ***
Total pot 320 | Rake 0 
Board [2s 8c 4s Ts Td]
Seat 1: kellyjandrews (big blind) showed [7c Kd] and won (320) with a pair of Tens
Seat 2: airjordan106 (button) (small blind) mucked [9h Jh]



PokerStars Hand #188643599868: Tournament #2355158506, 8800+1200 Hold'em No Limit - Level V (40/80) - 2018/07/12 13:11:27 ET
Table '2355158506 1' 3-max Seat #1 is the button
Seat 1: kellyjandrews (600 in chips) 
Seat 2: airjordan106 (900 in chips) 
kellyjandrews: posts small blind 40
airjordan106: posts big blind 80
*** HOLE CARDS ***
Dealt to kellyjandrews [5h Ks]
kellyjandrews: folds 
Uncalled bet (40) returned to airjordan106
airjordan106 collected 80 from pot
airjordan106: doesn't show hand 
*** SUMMARY ***
Total pot 80 | Rake 0 
Seat 1: kellyjandrews (button) (small blind) folded before Flop
Seat 2: airjordan106 (big blind) collected (80)



PokerStars Hand #188643602100: Tournament #2355158506, 8800+1200 Hold'em No Limit - Level V (40/80) - 2018/07/12 13:11:31 ET
Table '2355158506 1' 3-max Seat #2 is the button
Seat 1: kellyjandrews (560 in chips) 
Seat 2: airjordan106 (940 in chips) 
airjordan106: posts small blind 40
kellyjandrews: posts big blind 80
*** HOLE CARDS ***
Dealt to kellyjandrews [5c Kh]
airjordan106: calls 40
kellyjandrews: checks 
*** FLOP *** [2c Qd 6s]
kellyjandrews: checks 
airjordan106: checks 
*** TURN *** [2c Qd 6s] [Ac]
kellyjandrews: checks 
airjordan106: checks 
*** RIVER *** [2c Qd 6s Ac] [8s]
kellyjandrews: checks 
airjordan106: checks 
*** SHOW DOWN ***
kellyjandrews: shows [5c Kh] (high card Ace)
airjordan106: mucks hand 
kellyjandrews collected 160 from pot
*** SUMMARY ***
Total pot 160 | Rake 0 
Board [2c Qd 6s Ac 8s]
Seat 1: kellyjandrews (big blind) showed [5c Kh] and won (160) with high card Ace
Seat 2: airjordan106 (button) (small blind) mucked [Tc Jc]



PokerStars Hand #188643610251: Tournament #2355158506, 8800+1200 Hold'em No Limit - Level V (40/80) - 2018/07/12 13:11:44 ET
Table '2355158506 1' 3-max Seat #1 is the button
Seat 1: kellyjandrews (640 in chips) 
Seat 2: airjordan106 (860 in chips) 
kellyjandrews: posts small blind 40
airjordan106: posts big blind 80
*** HOLE CARDS ***
Dealt to kellyjandrews [8c 7s]
kellyjandrews: folds 
Uncalled bet (40) returned to airjordan106
airjordan106 collected 80 from pot
airjordan106: doesn't show hand 
*** SUMMARY ***
Total pot 80 | Rake 0 
Seat 1: kellyjandrews (button) (small blind) folded before Flop
Seat 2: airjordan106 (big blind) collected (80)



PokerStars Hand #188643613230: Tournament #2355158506, 8800+1200 Hold'em No Limit - Level V (40/80) - 2018/07/12 13:11:49 ET
Table '2355158506 1' 3-max Seat #2 is the button
Seat 1: kellyjandrews (600 in chips) 
Seat 2: airjordan106 (900 in chips) 
airjordan106: posts small blind 40
kellyjandrews: posts big blind 80
*** HOLE CARDS ***
Dealt to kellyjandrews [Qd 6h]
airjordan106: calls 40
kellyjandrews: checks 
*** FLOP *** [3s Kc 3d]
kellyjandrews: checks 
airjordan106: checks 
*** TURN *** [3s Kc 3d] [Jh]
kellyjandrews: bets 80
airjordan106: calls 80
*** RIVER *** [3s Kc 3d Jh] [Td]
kellyjandrews: checks 
airjordan106: checks 
*** SHOW DOWN ***
kellyjandrews: shows [Qd 6h] (a pair of Threes)
airjordan106: shows [7c Qc] (a pair of Threes)
kellyjandrews collected 160 from pot
airjordan106 collected 160 from pot
*** SUMMARY ***
Total pot 320 | Rake 0 
Board [3s Kc 3d Jh Td]
Seat 1: kellyjandrews (big blind) showed [Qd 6h] and won (160) with a pair of Threes
Seat 2: airjordan106 (button) (small blind) showed [7c Qc] and won (160) with a pair of Threes



PokerStars Hand #188643622347: Tournament #2355158506, 8800+1200 Hold'em No Limit - Level V (40/80) - 2018/07/12 13:12:04 ET
Table '2355158506 1' 3-max Seat #1 is the button
Seat 1: kellyjandrews (600 in chips) 
Seat 2: airjordan106 (900 in chips) 
kellyjandrews: posts small blind 40
airjordan106: posts big blind 80
*** HOLE CARDS ***
Dealt to kellyjandrews [Qd Kd]
kellyjandrews: raises 520 to 600 and is all-in
airjordan106: folds 
Uncalled bet (520) returned to kellyjandrews
kellyjandrews collected 160 from pot
kellyjandrews: doesn't show hand 
*** SUMMARY ***
Total pot 160 | Rake 0 
Seat 1: kellyjandrews (button) (small blind) collected (160)
Seat 2: airjordan106 (big blind) folded before Flop



PokerStars Hand #188643627421: Tournament #2355158506, 8800+1200 Hold'em No Limit - Level V (40/80) - 2018/07/12 13:12:12 ET
Table '2355158506 1' 3-max Seat #2 is the button
Seat 1: kellyjandrews (680 in chips) 
Seat 2: airjordan106 (820 in chips) 
airjordan106: posts small blind 40
kellyjandrews: posts big blind 80
*** HOLE CARDS ***
Dealt to kellyjandrews [Th Ks]
airjordan106: calls 40
kellyjandrews: checks 
*** FLOP *** [Qs Qd 9s]
kellyjandrews: checks 
airjordan106: checks 
*** TURN *** [Qs Qd 9s] [3h]
kellyjandrews: checks 
airjordan106: bets 80
kellyjandrews: folds 
Uncalled bet (80) returned to airjordan106
airjordan106 collected 160 from pot
airjordan106: doesn't show hand 
*** SUMMARY ***
Total pot 160 | Rake 0 
Board [Qs Qd 9s 3h]
Seat 1: kellyjandrews (big blind) folded on the Turn
Seat 2: airjordan106 (button) (small blind) collected (160)



PokerStars Hand #188643639837: Tournament #2355158506, 8800+1200 Hold'em No Limit - Level VI (50/100) - 2018/07/12 13:12:33 ET
Table '2355158506 1' 3-max Seat #1 is the button
Seat 1: kellyjandrews (600 in chips) 
Seat 2: airjordan106 (900 in chips) 
kellyjandrews: posts small blind 50
airjordan106: posts big blind 100
*** HOLE CARDS ***
Dealt to kellyjandrews [2c Qs]
kellyjandrews: folds 
Uncalled bet (50) returned to airjordan106
airjordan106 collected 100 from pot
airjordan106: doesn't show hand 
*** SUMMARY ***
Total pot 100 | Rake 0 
Seat 1: kellyjandrews (button) (small blind) folded before Flop
Seat 2: airjordan106 (big blind) collected (100)



PokerStars Hand #188643641850: Tournament #2355158506, 8800+1200 Hold'em No Limit - Level VI (50/100) - 2018/07/12 13:12:36 ET
Table '2355158506 1' 3-max Seat #2 is the button
Seat 1: kellyjandrews (550 in chips) 
Seat 2: airjordan106 (950 in chips) 
airjordan106: posts small blind 50
kellyjandrews: posts big blind 100
*** HOLE CARDS ***
Dealt to kellyjandrews [5d Qh]
airjordan106: calls 50
kellyjandrews: checks 
*** FLOP *** [9d Kh Ts]
kellyjandrews: checks 
airjordan106: checks 
*** TURN *** [9d Kh Ts] [Kd]
kellyjandrews: bets 100
airjordan106: calls 100
*** RIVER *** [9d Kh Ts Kd] [Qs]
kellyjandrews: bets 100
airjordan106: calls 100
*** SHOW DOWN ***
kellyjandrews: shows [5d Qh] (two pair, Kings and Queens)
airjordan106: shows [4c Qc] (two pair, Kings and Queens)
kellyjandrews collected 300 from pot
airjordan106 collected 300 from pot
*** SUMMARY ***
Total pot 600 | Rake 0 
Board [9d Kh Ts Kd Qs]
Seat 1: kellyjandrews (big blind) showed [5d Qh] and won (300) with two pair, Kings and Queens
Seat 2: airjordan106 (button) (small blind) showed [4c Qc] and won (300) with two pair, Kings and Queens



PokerStars Hand #188643650568: Tournament #2355158506, 8800+1200 Hold'em No Limit - Level VI (50/100) - 2018/07/12 13:12:51 ET
Table '2355158506 1' 3-max Seat #1 is the button
Seat 1: kellyjandrews (550 in chips) 
Seat 2: airjordan106 (950 in chips) 
kellyjandrews: posts small blind 50
airjordan106: posts big blind 100
*** HOLE CARDS ***
Dealt to kellyjandrews [5s Jh]
kellyjandrews: folds 
Uncalled bet (50) returned to airjordan106
airjordan106 collected 100 from pot
airjordan106: doesn't show hand 
*** SUMMARY ***
Total pot 100 | Rake 0 
Seat 1: kellyjandrews (button) (small blind) folded before Flop
Seat 2: airjordan106 (big blind) collected (100)



PokerStars Hand #188643652728: Tournament #2355158506, 8800+1200 Hold'em No Limit - Level VI (50/100) - 2018/07/12 13:12:54 ET
Table '2355158506 1' 3-max Seat #2 is the button
Seat 1: kellyjandrews (500 in chips) 
Seat 2: airjordan106 (1000 in chips) 
airjordan106: posts small blind 50
kellyjandrews: posts big blind 100
*** HOLE CARDS ***
Dealt to kellyjandrews [3h Ks]
airjordan106: raises 100 to 200
kellyjandrews: folds 
Uncalled bet (100) returned to airjordan106
airjordan106 collected 200 from pot
airjordan106: doesn't show hand 
*** SUMMARY ***
Total pot 200 | Rake 0 
Seat 1: kellyjandrews (big blind) folded before Flop
Seat 2: airjordan106 (button) (small blind) collected (200)



PokerStars Hand #188643656954: Tournament #2355158506, 8800+1200 Hold'em No Limit - Level VI (50/100) - 2018/07/12 13:13:01 ET
Table '2355158506 1' 3-max Seat #1 is the button
Seat 1: kellyjandrews (400 in chips) 
Seat 2: airjordan106 (1100 in chips) 
kellyjandrews: posts small blind 50
airjordan106: posts big blind 100
*** HOLE CARDS ***
Dealt to kellyjandrews [8d 9d]
kellyjandrews: folds 
Uncalled bet (50) returned to airjordan106
airjordan106 collected 100 from pot
airjordan106: doesn't show hand 
*** SUMMARY ***
Total pot 100 | Rake 0 
Seat 1: kellyjandrews (button) (small blind) folded before Flop
Seat 2: airjordan106 (big blind) collected (100)



PokerStars Hand #188643661402: Tournament #2355158506, 8800+1200 Hold'em No Limit - Level VI (50/100) - 2018/07/12 13:13:08 ET
Table '2355158506 1' 3-max Seat #2 is the button
Seat 1: kellyjandrews (350 in chips) 
Seat 2: airjordan106 (1150 in chips) 
airjordan106: posts small blind 50
kellyjandrews: posts big blind 100
*** HOLE CARDS ***
Dealt to kellyjandrews [9h Td]
airjordan106: folds 
Uncalled bet (50) returned to kellyjandrews
kellyjandrews collected 100 from pot
kellyjandrews: doesn't show hand 
*** SUMMARY ***
Total pot 100 | Rake 0 
Seat 1: kellyjandrews (big blind) collected (100)
Seat 2: airjordan106 (button) (small blind) folded before Flop



PokerStars Hand #188643663824: Tournament #2355158506, 8800+1200 Hold'em No Limit - Level VI (50/100) - 2018/07/12 13:13:12 ET
Table '2355158506 1' 3-max Seat #1 is the button
Seat 1: kellyjandrews (400 in chips) 
Seat 2: airjordan106 (1100 in chips) 
kellyjandrews: posts small blind 50
airjordan106: posts big blind 100
*** HOLE CARDS ***
Dealt to kellyjandrews [7c 4d]
kellyjandrews: folds 
Uncalled bet (50) returned to airjordan106
airjordan106 collected 100 from pot
airjordan106: doesn't show hand 
*** SUMMARY ***
Total pot 100 | Rake 0 
Seat 1: kellyjandrews (button) (small blind) folded before Flop
Seat 2: airjordan106 (big blind) collected (100)



PokerStars Hand #188643665923: Tournament #2355158506, 8800+1200 Hold'em No Limit - Level VI (50/100) - 2018/07/12 13:13:16 ET
Table '2355158506 1' 3-max Seat #2 is the button
Seat 1: kellyjandrews (350 in chips) 
Seat 2: airjordan106 (1150 in chips) 
airjordan106: posts small blind 50
kellyjandrews: posts big blind 100
*** HOLE CARDS ***
Dealt to kellyjandrews [2d Js]
airjordan106: folds 
Uncalled bet (50) returned to kellyjandrews
kellyjandrews collected 100 from pot
kellyjandrews: doesn't show hand 
*** SUMMARY ***
Total pot 100 | Rake 0 
Seat 1: kellyjandrews (big blind) collected (100)
Seat 2: airjordan106 (button) (small blind) folded before Flop



PokerStars Hand #188643668782: Tournament #2355158506, 8800+1200 Hold'em No Limit - Level VI (50/100) - 2018/07/12 13:13:21 ET
Table '2355158506 1' 3-max Seat #1 is the button
Seat 1: kellyjandrews (400 in chips) 
Seat 2: airjordan106 (1100 in chips) 
kellyjandrews: posts small blind 50
airjordan106: posts big blind 100
*** HOLE CARDS ***
Dealt to kellyjandrews [Th 2s]
kellyjandrews: folds 
Uncalled bet (50) returned to airjordan106
airjordan106 collected 100 from pot
airjordan106: doesn't show hand 
*** SUMMARY ***
Total pot 100 | Rake 0 
Seat 1: kellyjandrews (button) (small blind) folded before Flop
Seat 2: airjordan106 (big blind) collected (100)



PokerStars Hand #188643670762: Tournament #2355158506, 8800+1200 Hold'em No Limit - Level VI (50/100) - 2018/07/12 13:13:24 ET
Table '2355158506 1' 3-max Seat #2 is the button
Seat 1: kellyjandrews (350 in chips) 
Seat 2: airjordan106 (1150 in chips) 
airjordan106: posts small blind 50
kellyjandrews: posts big blind 100
*** HOLE CARDS ***
Dealt to kellyjandrews [Ah 5s]
airjordan106: folds 
Uncalled bet (50) returned to kellyjandrews
kellyjandrews collected 100 from pot
kellyjandrews: doesn't show hand 
*** SUMMARY ***
Total pot 100 | Rake 0 
Seat 1: kellyjandrews (big blind) collected (100)
Seat 2: airjordan106 (button) (small blind) folded before Flop



PokerStars Hand #188643673190: Tournament #2355158506, 8800+1200 Hold'em No Limit - Level VI (50/100) - 2018/07/12 13:13:28 ET
Table '2355158506 1' 3-max Seat #1 is the button
Seat 1: kellyjandrews (400 in chips) 
Seat 2: airjordan106 (1100 in chips) 
kellyjandrews: posts small blind 50
airjordan106: posts big blind 100
*** HOLE CARDS ***
Dealt to kellyjandrews [4c 9s]
kellyjandrews: folds 
Uncalled bet (50) returned to airjordan106
airjordan106 collected 100 from pot
airjordan106: doesn't show hand 
*** SUMMARY ***
Total pot 100 | Rake 0 
Seat 1: kellyjandrews (button) (small blind) folded before Flop
Seat 2: airjordan106 (big blind) collected (100)



PokerStars Hand #188643675085: Tournament #2355158506, 8800+1200 Hold'em No Limit - Level VI (50/100) - 2018/07/12 13:13:31 ET
Table '2355158506 1' 3-max Seat #2 is the button
Seat 1: kellyjandrews (350 in chips) 
Seat 2: airjordan106 (1150 in chips) 
airjordan106: posts small blind 50
kellyjandrews: posts big blind 100
*** HOLE CARDS ***
Dealt to kellyjandrews [9h Ad]
airjordan106: calls 50
kellyjandrews: raises 250 to 350 and is all-in
airjordan106: folds 
Uncalled bet (250) returned to kellyjandrews
kellyjandrews collected 200 from pot
kellyjandrews: doesn't show hand 
*** SUMMARY ***
Total pot 200 | Rake 0 
Seat 1: kellyjandrews (big blind) collected (200)
Seat 2: airjordan106 (button) (small blind) folded before Flop



PokerStars Hand #188643679591: Tournament #2355158506, 8800+1200 Hold'em No Limit - Level VI (50/100) - 2018/07/12 13:13:38 ET
Table '2355158506 1' 3-max Seat #1 is the button
Seat 1: kellyjandrews (450 in chips) 
Seat 2: airjordan106 (1050 in chips) 
kellyjandrews: posts small blind 50
airjordan106: posts big blind 100
*** HOLE CARDS ***
Dealt to kellyjandrews [Tc Qs]
kellyjandrews: raises 350 to 450 and is all-in
airjordan106: folds 
Uncalled bet (350) returned to kellyjandrews
kellyjandrews collected 200 from pot
kellyjandrews: doesn't show hand 
*** SUMMARY ***
Total pot 200 | Rake 0 
Seat 1: kellyjandrews (button) (small blind) collected (200)
Seat 2: airjordan106 (big blind) folded before Flop



PokerStars Hand #188643682881: Tournament #2355158506, 8800+1200 Hold'em No Limit - Level VI (50/100) - 2018/07/12 13:13:44 ET
Table '2355158506 1' 3-max Seat #2 is the button
Seat 1: kellyjandrews (550 in chips) 
Seat 2: airjordan106 (950 in chips) 
airjordan106: posts small blind 50
kellyjandrews: posts big blind 100
*** HOLE CARDS ***
Dealt to kellyjandrews [Qh 7s]
airjordan106: calls 50
kellyjandrews: checks 
*** FLOP *** [Qd 8s Ts]
kellyjandrews: bets 100
airjordan106: calls 100
*** TURN *** [Qd 8s Ts] [3s]
kellyjandrews: bets 100
airjordan106: calls 100
*** RIVER *** [Qd 8s Ts 3s] [Tc]
kellyjandrews: bets 250 and is all-in
airjordan106: folds 
Uncalled bet (250) returned to kellyjandrews
kellyjandrews collected 600 from pot
kellyjandrews: doesn't show hand 
*** SUMMARY ***
Total pot 600 | Rake 0 
Board [Qd 8s Ts 3s Tc]
Seat 1: kellyjandrews (big blind) collected (600)
Seat 2: airjordan106 (button) (small blind) folded on the River



PokerStars Hand #188643693471: Tournament #2355158506, 8800+1200 Hold'em No Limit - Level VI (50/100) - 2018/07/12 13:14:02 ET
Table '2355158506 1' 3-max Seat #1 is the button
Seat 1: kellyjandrews (850 in chips) 
Seat 2: airjordan106 (650 in chips) 
kellyjandrews: posts small blind 50
airjordan106: posts big blind 100
*** HOLE CARDS ***
Dealt to kellyjandrews [5s Qd]
kellyjandrews: folds 
Uncalled bet (50) returned to airjordan106
airjordan106 collected 100 from pot
airjordan106: doesn't show hand 
*** SUMMARY ***
Total pot 100 | Rake 0 
Seat 1: kellyjandrews (button) (small blind) folded before Flop
Seat 2: airjordan106 (big blind) collected (100)



PokerStars Hand #188643695603: Tournament #2355158506, 8800+1200 Hold'em No Limit - Level VI (50/100) - 2018/07/12 13:14:05 ET
Table '2355158506 1' 3-max Seat #2 is the button
Seat 1: kellyjandrews (800 in chips) 
Seat 2: airjordan106 (700 in chips) 
airjordan106: posts small blind 50
kellyjandrews: posts big blind 100
*** HOLE CARDS ***
Dealt to kellyjandrews [2d 3h]
airjordan106: raises 100 to 200
kellyjandrews: folds 
Uncalled bet (100) returned to airjordan106
airjordan106 collected 200 from pot
airjordan106: doesn't show hand 
*** SUMMARY ***
Total pot 200 | Rake 0 
Seat 1: kellyjandrews (big blind) folded before Flop
Seat 2: airjordan106 (button) (small blind) collected (200)



PokerStars Hand #188643700051: Tournament #2355158506, 8800+1200 Hold'em No Limit - Level VI (50/100) - 2018/07/12 13:14:13 ET
Table '2355158506 1' 3-max Seat #1 is the button
Seat 1: kellyjandrews (700 in chips) 
Seat 2: airjordan106 (800 in chips) 
kellyjandrews: posts small blind 50
airjordan106: posts big blind 100
*** HOLE CARDS ***
Dealt to kellyjandrews [5h 7s]
kellyjandrews: folds 
Uncalled bet (50) returned to airjordan106
airjordan106 collected 100 from pot
airjordan106: doesn't show hand 
*** SUMMARY ***
Total pot 100 | Rake 0 
Seat 1: kellyjandrews (button) (small blind) folded before Flop
Seat 2: airjordan106 (big blind) collected (100)



PokerStars Hand #188643702018: Tournament #2355158506, 8800+1200 Hold'em No Limit - Level VI (50/100) - 2018/07/12 13:14:16 ET
Table '2355158506 1' 3-max Seat #2 is the button
Seat 1: kellyjandrews (650 in chips) 
Seat 2: airjordan106 (850 in chips) 
airjordan106: posts small blind 50
kellyjandrews: posts big blind 100
*** HOLE CARDS ***
Dealt to kellyjandrews [4d Th]
airjordan106: raises 100 to 200
kellyjandrews: folds 
Uncalled bet (100) returned to airjordan106
airjordan106 collected 200 from pot
airjordan106: doesn't show hand 
*** SUMMARY ***
Total pot 200 | Rake 0 
Seat 1: kellyjandrews (big blind) folded before Flop
Seat 2: airjordan106 (button) (small blind) collected (200)



PokerStars Hand #188643705191: Tournament #2355158506, 8800+1200 Hold'em No Limit - Level VI (50/100) - 2018/07/12 13:14:21 ET
Table '2355158506 1' 3-max Seat #1 is the button
Seat 1: kellyjandrews (550 in chips) 
Seat 2: airjordan106 (950 in chips) 
kellyjandrews: posts small blind 50
airjordan106: posts big blind 100
*** HOLE CARDS ***
Dealt to kellyjandrews [Jh 5h]
kellyjandrews: folds 
Uncalled bet (50) returned to airjordan106
airjordan106 collected 100 from pot
airjordan106: doesn't show hand 
*** SUMMARY ***
Total pot 100 | Rake 0 
Seat 1: kellyjandrews (button) (small blind) folded before Flop
Seat 2: airjordan106 (big blind) collected (100)



PokerStars Hand #188643708851: Tournament #2355158506, 8800+1200 Hold'em No Limit - Level VI (50/100) - 2018/07/12 13:14:27 ET
Table '2355158506 1' 3-max Seat #2 is the button
Seat 1: kellyjandrews (500 in chips) 
Seat 2: airjordan106 (1000 in chips) 
airjordan106: posts small blind 50
kellyjandrews: posts big blind 100
*** HOLE CARDS ***
Dealt to kellyjandrews [9c 3d]
airjordan106: calls 50
kellyjandrews: checks 
*** FLOP *** [Qs Th 8h]
kellyjandrews: checks 
airjordan106: checks 
*** TURN *** [Qs Th 8h] [Kh]
kellyjandrews: bets 100
airjordan106: calls 100
*** RIVER *** [Qs Th 8h Kh] [2h]
kellyjandrews: checks 
airjordan106: bets 200
kellyjandrews: folds 
Uncalled bet (200) returned to airjordan106
airjordan106 collected 400 from pot
airjordan106: doesn't show hand 
*** SUMMARY ***
Total pot 400 | Rake 0 
Board [Qs Th 8h Kh 2h]
Seat 1: kellyjandrews (big blind) folded on the River
Seat 2: airjordan106 (button) (small blind) collected (400)



PokerStars Hand #188643722343: Tournament #2355158506, 8800+1200 Hold'em No Limit - Level VI (50/100) - 2018/07/12 13:14:50 ET
Table '2355158506 1' 3-max Seat #1 is the button
Seat 1: kellyjandrews (300 in chips) 
Seat 2: airjordan106 (1200 in chips) 
kellyjandrews: posts small blind 50
airjordan106: posts big blind 100
*** HOLE CARDS ***
Dealt to kellyjandrews [6c 4h]
kellyjandrews: folds 
Uncalled bet (50) returned to airjordan106
airjordan106 collected 100 from pot
airjordan106: doesn't show hand 
*** SUMMARY ***
Total pot 100 | Rake 0 
Seat 1: kellyjandrews (button) (small blind) folded before Flop
Seat 2: airjordan106 (big blind) collected (100)



PokerStars Hand #188643724779: Tournament #2355158506, 8800+1200 Hold'em No Limit - Level VI (50/100) - 2018/07/12 13:14:54 ET
Table '2355158506 1' 3-max Seat #2 is the button
Seat 1: kellyjandrews (250 in chips) 
Seat 2: airjordan106 (1250 in chips) 
airjordan106: posts small blind 50
kellyjandrews: posts big blind 100
*** HOLE CARDS ***
Dealt to kellyjandrews [6h 9c]
airjordan106: raises 100 to 200
kellyjandrews: folds 
Uncalled bet (100) returned to airjordan106
airjordan106 collected 200 from pot
airjordan106: doesn't show hand 
*** SUMMARY ***
Total pot 200 | Rake 0 
Seat 1: kellyjandrews (big blind) folded before Flop
Seat 2: airjordan106 (button) (small blind) collected (200)



PokerStars Hand #188643728915: Tournament #2355158506, 8800+1200 Hold'em No Limit - Level VI (50/100) - 2018/07/12 13:15:00 ET
Table '2355158506 1' 3-max Seat #1 is the button
Seat 1: kellyjandrews (150 in chips) 
Seat 2: airjordan106 (1350 in chips) 
kellyjandrews: posts small blind 50
airjordan106: posts big blind 100
*** HOLE CARDS ***
Dealt to kellyjandrews [Kh Ad]
kellyjandrews: raises 50 to 150 and is all-in
airjordan106: calls 50
*** FLOP *** [6s Qd 7h]
*** TURN *** [6s Qd 7h] [Ts]
*** RIVER *** [6s Qd 7h Ts] [Ac]
*** SHOW DOWN ***
airjordan106: shows [Td 9d] (a pair of Tens)
kellyjandrews: shows [Kh Ad] (a pair of Aces)
kellyjandrews collected 300 from pot
*** SUMMARY ***
Total pot 300 | Rake 0 
Board [6s Qd 7h Ts Ac]
Seat 1: kellyjandrews (button) (small blind) showed [Kh Ad] and won (300) with a pair of Aces
Seat 2: airjordan106 (big blind) showed [Td 9d] and lost with a pair of Tens



PokerStars Hand #188643736172: Tournament #2355158506, 8800+1200 Hold'em No Limit - Level VI (50/100) - 2018/07/12 13:15:12 ET
Table '2355158506 1' 3-max Seat #2 is the button
Seat 1: kellyjandrews (300 in chips) 
Seat 2: airjordan106 (1200 in chips) 
airjordan106: posts small blind 50
kellyjandrews: posts big blind 100
*** HOLE CARDS ***
Dealt to kellyjandrews [9h 8s]
airjordan106: raises 100 to 200
kellyjandrews: raises 100 to 300 and is all-in
airjordan106: calls 100
*** FLOP *** [Kc Tc Qd]
*** TURN *** [Kc Tc Qd] [2h]
*** RIVER *** [Kc Tc Qd 2h] [Kh]
*** SHOW DOWN ***
kellyjandrews: shows [9h 8s] (a pair of Kings)
airjordan106: shows [5d As] (a pair of Kings - Ace kicker)
airjordan106 collected 600 from pot
kellyjandrews finished the tournament in 2nd place
airjordan106 wins the tournament and receives 50000.00 - congratulations!
*** SUMMARY ***
Total pot 600 | Rake 0 
Board [Kc Tc Qd 2h Kh]
Seat 1: kellyjandrews (big blind) showed [9h 8s] and lost with a pair of Kings
Seat 2: airjordan106 (button) (small blind) showed [5d As] and won (600) with a pair of Kings



